%!PS-Adobe-3.0
%%Orientation: Portrait
%%DocumentMedia: a4 595 842 80 () ()
%%Pages: 1
%%EndComments
%%EndProlog
%%BeginSetup
  << /PageSize [595 842] /Orientation 0 >> setpagedevice
%%EndSetup
%%Page: 1 1
  1 0 0 3 copy setrgbcolor
  377 152 moveto
  /kreska { 10 0 rlineto currentpoint stroke moveto } def
  /lewo { 60 rotate 3 1 roll 3 copy setrgbcolor } def
  /prawo { -60 rotate 3 -1 roll 3 copy setrgbcolor } def
  kreska
  lewo
  kreska
  lewo
  lewo
  kreska
  prawo
  kreska
  prawo
  prawo
  kreska
  kreska
  prawo
  kreska
  lewo
  lewo
  prawo
  kreska
  lewo
  kreska
  kreska
  lewo
  lewo
  kreska
  lewo
  kreska
  prawo
  prawo
  kreska
  prawo
  kreska
  lewo
  lewo
  prawo
  kreska
  lewo
  kreska
  kreska
  lewo
  lewo
  kreska
  lewo
  kreska
  prawo
  prawo
  kreska
  prawo
  kreska
  prawo
  kreska
  lewo
  kreska
  lewo
  lewo
  kreska
  prawo
  kreska
  prawo
  prawo
  kreska
  kreska
  prawo
  kreska
  lewo
  prawo
  prawo
  kreska
  lewo
  kreska
  lewo
  lewo
  kreska
  prawo
  kreska
  prawo
  prawo
  kreska
  kreska
  prawo
  kreska
  lewo
  kreska
  lewo
  kreska
  lewo
  lewo
  kreska
  prawo
  kreska
  prawo
  prawo
  kreska
  kreska
  prawo
  kreska
  lewo
  prawo
  prawo
  kreska
  lewo
  kreska
  kreska
  lewo
  lewo
  kreska
  lewo
  kreska
  prawo
  prawo
  kreska
  prawo
  kreska
  lewo
  lewo
  prawo
  kreska
  lewo
  kreska
  lewo
  lewo
  kreska
  prawo
  kreska
  prawo
  prawo
  kreska
  kreska
  prawo
  kreska
  lewo
  lewo
  prawo
  kreska
  lewo
  kreska
  kreska
  lewo
  lewo
  kreska
  lewo
  kreska
  prawo
  prawo
  kreska
  prawo
  kreska
  prawo
  kreska
  lewo
  kreska
  kreska
  lewo
  lewo
  kreska
  lewo
  kreska
  prawo
  prawo
  kreska
  prawo
  kreska
  lewo
  lewo
  prawo
  kreska
  lewo
  kreska
  kreska
  lewo
  lewo
  kreska
  lewo
  kreska
  prawo
  prawo
  kreska
  prawo
  kreska
  lewo
  kreska
  lewo
  kreska
  lewo
  lewo
  kreska
  prawo
  kreska
  prawo
  prawo
  kreska
  kreska
  prawo
  kreska
  lewo
  prawo
  prawo
  kreska
  lewo
  kreska
  lewo
  lewo
  kreska
  prawo
  kreska
  prawo
  prawo
  kreska
  kreska
  prawo
  kreska
  lewo
  prawo
  prawo
  kreska
  lewo
  kreska
  kreska
  lewo
  lewo
  kreska
  lewo
  kreska
  prawo
  prawo
  kreska
  prawo
  kreska
  lewo
  lewo
  prawo
  kreska
  lewo
  kreska
  lewo
  lewo
  kreska
  prawo
  kreska
  prawo
  prawo
  kreska
  kreska
  prawo
  kreska
  lewo
  lewo
  prawo
  kreska
  lewo
  kreska
  kreska
  lewo
  lewo
  kreska
  lewo
  kreska
  prawo
  prawo
  kreska
  prawo
  kreska
  prawo
  kreska
  lewo
  kreska
  kreska
  lewo
  lewo
  kreska
  lewo
  kreska
  prawo
  prawo
  kreska
  prawo
  kreska
  lewo
  lewo
  prawo
  kreska
  lewo
  kreska
  kreska
  lewo
  lewo
  kreska
  lewo
  kreska
  prawo
  prawo
  kreska
  prawo
  kreska
  lewo
  kreska
  lewo
  kreska
  lewo
  lewo
  kreska
  prawo
  kreska
  prawo
  prawo
  kreska
  kreska
  prawo
  kreska
  lewo
  prawo
  prawo
  kreska
  lewo
  kreska
  lewo
  lewo
  kreska
  prawo
  kreska
  prawo
  prawo
  kreska
  kreska
  prawo
  kreska
  lewo
  prawo
  prawo
  kreska
  lewo
  kreska
  kreska
  lewo
  lewo
  kreska
  lewo
  kreska
  prawo
  prawo
  kreska
  prawo
  kreska
  prawo
  kreska
  lewo
  kreska
  lewo
  lewo
  kreska
  prawo
  kreska
  prawo
  prawo
  kreska
  kreska
  prawo
  kreska
  lewo
  lewo
  prawo
  kreska
  lewo
  kreska
  kreska
  lewo
  lewo
  kreska
  lewo
  kreska
  prawo
  prawo
  kreska
  prawo
  kreska
  lewo
  lewo
  prawo
  kreska
  lewo
  kreska
  kreska
  lewo
  lewo
  kreska
  lewo
  kreska
  prawo
  prawo
  kreska
  prawo
  kreska
  prawo
  kreska
  lewo
  kreska
  lewo
  lewo
  kreska
  prawo
  kreska
  prawo
  prawo
  kreska
  kreska
  prawo
  kreska
  lewo
  prawo
  prawo
  kreska
  lewo
  kreska
  lewo
  lewo
  kreska
  prawo
  kreska
  prawo
  prawo
  kreska
  kreska
  prawo
  kreska
  lewo
  kreska
  lewo
  kreska
  lewo
  lewo
  kreska
  prawo
  kreska
  prawo
  prawo
  kreska
  kreska
  prawo
  kreska
  lewo
  prawo
  prawo
  kreska
  lewo
  kreska
  kreska
  lewo
  lewo
  kreska
  lewo
  kreska
  prawo
  prawo
  kreska
  prawo
  kreska
  lewo
  prawo
  prawo
  kreska
  lewo
  kreska
  lewo
  lewo
  kreska
  prawo
  kreska
  prawo
  prawo
  kreska
  kreska
  prawo
  kreska
  lewo
  lewo
  prawo
  kreska
  lewo
  kreska
  kreska
  lewo
  lewo
  kreska
  lewo
  kreska
  prawo
  prawo
  kreska
  prawo
  kreska
  lewo
  lewo
  prawo
  kreska
  lewo
  kreska
  kreska
  lewo
  lewo
  kreska
  lewo
  kreska
  prawo
  prawo
  kreska
  prawo
  kreska
  prawo
  kreska
  lewo
  kreska
  lewo
  lewo
  kreska
  prawo
  kreska
  prawo
  prawo
  kreska
  kreska
  prawo
  kreska
  lewo
  prawo
  prawo
  kreska
  lewo
  kreska
  lewo
  lewo
  kreska
  prawo
  kreska
  prawo
  prawo
  kreska
  kreska
  prawo
  kreska
  lewo
  kreska
  lewo
  kreska
  lewo
  lewo
  kreska
  prawo
  kreska
  prawo
  prawo
  kreska
  kreska
  prawo
  kreska
  lewo
  prawo
  prawo
  kreska
  lewo
  kreska
  kreska
  lewo
  lewo
  kreska
  lewo
  kreska
  prawo
  prawo
  kreska
  prawo
  kreska
  lewo
  kreska
  lewo
  kreska
  lewo
  lewo
  kreska
  prawo
  kreska
  prawo
  prawo
  kreska
  kreska
  prawo
  kreska
  lewo
  lewo
  prawo
  kreska
  lewo
  kreska
  kreska
  lewo
  lewo
  kreska
  lewo
  kreska
  prawo
  prawo
  kreska
  prawo
  kreska
  lewo
  lewo
  prawo
  kreska
  lewo
  kreska
  kreska
  lewo
  lewo
  kreska
  lewo
  kreska
  prawo
  prawo
  kreska
  prawo
  kreska
  prawo
  kreska
  lewo
  kreska
  lewo
  lewo
  kreska
  prawo
  kreska
  prawo
  prawo
  kreska
  kreska
  prawo
  kreska
  lewo
  prawo
  prawo
  kreska
  lewo
  kreska
  lewo
  lewo
  kreska
  prawo
  kreska
  prawo
  prawo
  kreska
  kreska
  prawo
  kreska
  lewo
  kreska
  lewo
  kreska
  lewo
  lewo
  kreska
  prawo
  kreska
  prawo
  prawo
  kreska
  kreska
  prawo
  kreska
  lewo
  prawo
  prawo
  kreska
  lewo
  kreska
  kreska
  lewo
  lewo
  kreska
  lewo
  kreska
  prawo
  prawo
  kreska
  prawo
  kreska
  lewo
  prawo
  prawo
  kreska
  lewo
  kreska
  lewo
  lewo
  kreska
  prawo
  kreska
  prawo
  prawo
  kreska
  kreska
  prawo
  kreska
  lewo
  lewo
  prawo
  kreska
  lewo
  kreska
  kreska
  lewo
  lewo
  kreska
  lewo
  kreska
  prawo
  prawo
  kreska
  prawo
  kreska
  prawo
  kreska
  lewo
  kreska
  kreska
  lewo
  lewo
  kreska
  lewo
  kreska
  prawo
  prawo
  kreska
  prawo
  kreska
  lewo
  lewo
  prawo
  kreska
  lewo
  kreska
  kreska
  lewo
  lewo
  kreska
  lewo
  kreska
  prawo
  prawo
  kreska
  prawo
  kreska
  lewo
  kreska
  lewo
  kreska
  lewo
  lewo
  kreska
  prawo
  kreska
  prawo
  prawo
  kreska
  kreska
  prawo
  kreska
  lewo
  prawo
  prawo
  kreska
  lewo
  kreska
  lewo
  lewo
  kreska
  prawo
  kreska
  prawo
  prawo
  kreska
  kreska
  prawo
  kreska
  lewo
  prawo
  prawo
  kreska
  lewo
  kreska
  kreska
  lewo
  lewo
  kreska
  lewo
  kreska
  prawo
  prawo
  kreska
  prawo
  kreska
  lewo
  lewo
  prawo
  kreska
  lewo
  kreska
  lewo
  lewo
  kreska
  prawo
  kreska
  prawo
  prawo
  kreska
  kreska
  prawo
  kreska
  lewo
  lewo
  prawo
  kreska
  lewo
  kreska
  kreska
  lewo
  lewo
  kreska
  lewo
  kreska
  prawo
  prawo
  kreska
  prawo
  kreska
  lewo
  lewo
  prawo
  kreska
  lewo
  kreska
  kreska
  lewo
  lewo
  kreska
  lewo
  kreska
  prawo
  prawo
  kreska
  prawo
  kreska
  prawo
  kreska
  lewo
  kreska
  lewo
  lewo
  kreska
  prawo
  kreska
  prawo
  prawo
  kreska
  kreska
  prawo
  kreska
  lewo
  prawo
  prawo
  kreska
  lewo
  kreska
  lewo
  lewo
  kreska
  prawo
  kreska
  prawo
  prawo
  kreska
  kreska
  prawo
  kreska
  lewo
  kreska
  lewo
  kreska
  lewo
  lewo
  kreska
  prawo
  kreska
  prawo
  prawo
  kreska
  kreska
  prawo
  kreska
  lewo
  prawo
  prawo
  kreska
  lewo
  kreska
  kreska
  lewo
  lewo
  kreska
  lewo
  kreska
  prawo
  prawo
  kreska
  prawo
  kreska
  lewo
  lewo
  prawo
  kreska
  lewo
  kreska
  lewo
  lewo
  kreska
  prawo
  kreska
  prawo
  prawo
  kreska
  kreska
  prawo
  kreska
  lewo
  lewo
  prawo
  kreska
  lewo
  kreska
  kreska
  lewo
  lewo
  kreska
  lewo
  kreska
  prawo
  prawo
  kreska
  prawo
  kreska
  prawo
  kreska
  lewo
  kreska
  kreska
  lewo
  lewo
  kreska
  lewo
  kreska
  prawo
  prawo
  kreska
  prawo
  kreska
  lewo
  lewo
  prawo
  kreska
  lewo
  kreska
  kreska
  lewo
  lewo
  kreska
  lewo
  kreska
  prawo
  prawo
  kreska
  prawo
  kreska
  lewo
  kreska
  lewo
  kreska
  lewo
  lewo
  kreska
  prawo
  kreska
  prawo
  prawo
  kreska
  kreska
  prawo
  kreska
  lewo
  prawo
  prawo
  kreska
  lewo
  kreska
  lewo
  lewo
  kreska
  prawo
  kreska
  prawo
  prawo
  kreska
  kreska
  prawo
  kreska
  lewo
  prawo
  prawo
  kreska
  lewo
  kreska
  kreska
  lewo
  lewo
  kreska
  lewo
  kreska
  prawo
  prawo
  kreska
  prawo
  kreska
  prawo
  kreska
  lewo
  kreska
  lewo
  lewo
  kreska
  prawo
  kreska
  prawo
  prawo
  kreska
  kreska
  prawo
  kreska
  lewo
  lewo
  prawo
  kreska
  lewo
  kreska
  kreska
  lewo
  lewo
  kreska
  lewo
  kreska
  prawo
  prawo
  kreska
  prawo
  kreska
  prawo
  kreska
  lewo
  kreska
  kreska
  lewo
  lewo
  kreska
  lewo
  kreska
  prawo
  prawo
  kreska
  prawo
  kreska
  lewo
  lewo
  prawo
  kreska
  lewo
  kreska
  kreska
  lewo
  lewo
  kreska
  lewo
  kreska
  prawo
  prawo
  kreska
  prawo
  kreska
  lewo
  kreska
  lewo
  kreska
  lewo
  lewo
  kreska
  prawo
  kreska
  prawo
  prawo
  kreska
  kreska
  prawo
  kreska
  lewo
  prawo
  prawo
  kreska
  lewo
  kreska
  lewo
  lewo
  kreska
  prawo
  kreska
  prawo
  prawo
  kreska
  kreska
  prawo
  kreska
  lewo
  prawo
  prawo
  kreska
  lewo
  kreska
  kreska
  lewo
  lewo
  kreska
  lewo
  kreska
  prawo
  prawo
  kreska
  prawo
  kreska
  lewo
  lewo
  prawo
  kreska
  lewo
  kreska
  lewo
  lewo
  kreska
  prawo
  kreska
  prawo
  prawo
  kreska
  kreska
  prawo
  kreska
  lewo
  lewo
  prawo
  kreska
  lewo
  kreska
  kreska
  lewo
  lewo
  kreska
  lewo
  kreska
  prawo
  prawo
  kreska
  prawo
  kreska
  prawo
  kreska
  lewo
  kreska
  kreska
  lewo
  lewo
  kreska
  lewo
  kreska
  prawo
  prawo
  kreska
  prawo
  kreska
  lewo
  lewo
  prawo
  kreska
  lewo
  kreska
  kreska
  lewo
  lewo
  kreska
  lewo
  kreska
  prawo
  prawo
  kreska
  prawo
  kreska
  lewo
  kreska
  lewo
  kreska
  lewo
  lewo
  kreska
  prawo
  kreska
  prawo
  prawo
  kreska
  kreska
  prawo
  kreska
  lewo
  prawo
  prawo
  kreska
  lewo
  kreska
  lewo
  lewo
  kreska
  prawo
  kreska
  prawo
  prawo
  kreska
  kreska
  prawo
  kreska
  lewo
  prawo
  prawo
  kreska
  lewo
  kreska
  kreska
  lewo
  lewo
  kreska
  lewo
  kreska
  prawo
  prawo
  kreska
  prawo
  kreska
  lewo
  kreska
  lewo
  kreska
  lewo
  lewo
  kreska
  prawo
  kreska
  prawo
  prawo
  kreska
  kreska
  prawo
  kreska
  lewo
  lewo
  prawo
  kreska
  lewo
  kreska
  kreska
  lewo
  lewo
  kreska
  lewo
  kreska
  prawo
  prawo
  kreska
  prawo
  kreska
  lewo
  lewo
  prawo
  kreska
  lewo
  kreska
  kreska
  lewo
  lewo
  kreska
  lewo
  kreska
  prawo
  prawo
  kreska
  prawo
  kreska
  prawo
  kreska
  lewo
  kreska
  lewo
  lewo
  kreska
  prawo
  kreska
  prawo
  prawo
  kreska
  kreska
  prawo
  kreska
  lewo
  prawo
  prawo
  kreska
  lewo
  kreska
  lewo
  lewo
  kreska
  prawo
  kreska
  prawo
  prawo
  kreska
  kreska
  prawo
  kreska
  lewo
  kreska
  lewo
  kreska
  lewo
  lewo
  kreska
  prawo
  kreska
  prawo
  prawo
  kreska
  kreska
  prawo
  kreska
  lewo
  prawo
  prawo
  kreska
  lewo
  kreska
  kreska
  lewo
  lewo
  kreska
  lewo
  kreska
  prawo
  prawo
  kreska
  prawo
  kreska
  lewo
  prawo
  prawo
  kreska
  lewo
  kreska
  lewo
  lewo
  kreska
  prawo
  kreska
  prawo
  prawo
  kreska
  kreska
  prawo
  kreska
  lewo
  lewo
  prawo
  kreska
  lewo
  kreska
  kreska
  lewo
  lewo
  kreska
  lewo
  kreska
  prawo
  prawo
  kreska
  prawo
  kreska
  lewo
  lewo
  prawo
  kreska
  lewo
  kreska
  kreska
  lewo
  lewo
  kreska
  lewo
  kreska
  prawo
  prawo
  kreska
  prawo
  kreska
  prawo
  kreska
  lewo
  kreska
  lewo
  lewo
  kreska
  prawo
  kreska
  prawo
  prawo
  kreska
  kreska
  prawo
  kreska
  lewo
  prawo
  prawo
  kreska
  lewo
  kreska
  lewo
  lewo
  kreska
  prawo
  kreska
  prawo
  prawo
  kreska
  kreska
  prawo
  kreska
  lewo
  kreska
  lewo
  kreska
  lewo
  lewo
  kreska
  prawo
  kreska
  prawo
  prawo
  kreska
  kreska
  prawo
  kreska
  lewo
  prawo
  prawo
  kreska
  lewo
  kreska
  kreska
  lewo
  lewo
  kreska
  lewo
  kreska
  prawo
  prawo
  kreska
  prawo
  kreska
  lewo
  prawo
  prawo
  kreska
  lewo
  kreska
  lewo
  lewo
  kreska
  prawo
  kreska
  prawo
  prawo
  kreska
  kreska
  prawo
  kreska
  lewo
  lewo
  prawo
  kreska
  lewo
  kreska
  kreska
  lewo
  lewo
  kreska
  lewo
  kreska
  prawo
  prawo
  kreska
  prawo
  kreska
  prawo
  kreska
  lewo
  kreska
  kreska
  lewo
  lewo
  kreska
  lewo
  kreska
  prawo
  prawo
  kreska
  prawo
  kreska
  lewo
  lewo
  prawo
  kreska
  lewo
  kreska
  kreska
  lewo
  lewo
  kreska
  lewo
  kreska
  prawo
  prawo
  kreska
  prawo
  kreska
  lewo
  kreska
  lewo
  kreska
  lewo
  lewo
  kreska
  prawo
  kreska
  prawo
  prawo
  kreska
  kreska
  prawo
  kreska
  lewo
  prawo
  prawo
  kreska
  lewo
  kreska
  lewo
  lewo
  kreska
  prawo
  kreska
  prawo
  prawo
  kreska
  kreska
  prawo
  kreska
  lewo
  prawo
  prawo
  kreska
  lewo
  kreska
  kreska
  lewo
  lewo
  kreska
  lewo
  kreska
  prawo
  prawo
  kreska
  prawo
  kreska
  lewo
  lewo
  prawo
  kreska
  lewo
  kreska
  lewo
  lewo
  kreska
  prawo
  kreska
  prawo
  prawo
  kreska
  kreska
  prawo
  kreska
  lewo
  lewo
  prawo
  kreska
  lewo
  kreska
  kreska
  lewo
  lewo
  kreska
  lewo
  kreska
  prawo
  prawo
  kreska
  prawo
  kreska
  lewo
  lewo
  prawo
  kreska
  lewo
  kreska
  kreska
  lewo
  lewo
  kreska
  lewo
  kreska
  prawo
  prawo
  kreska
  prawo
  kreska
  prawo
  kreska
  lewo
  kreska
  lewo
  lewo
  kreska
  prawo
  kreska
  prawo
  prawo
  kreska
  kreska
  prawo
  kreska
  lewo
  prawo
  prawo
  kreska
  lewo
  kreska
  lewo
  lewo
  kreska
  prawo
  kreska
  prawo
  prawo
  kreska
  kreska
  prawo
  kreska
  lewo
  kreska
  lewo
  kreska
  lewo
  lewo
  kreska
  prawo
  kreska
  prawo
  prawo
  kreska
  kreska
  prawo
  kreska
  lewo
  prawo
  prawo
  kreska
  lewo
  kreska
  kreska
  lewo
  lewo
  kreska
  lewo
  kreska
  prawo
  prawo
  kreska
  prawo
  kreska
  lewo
  lewo
  prawo
  kreska
  lewo
  kreska
  lewo
  lewo
  kreska
  prawo
  kreska
  prawo
  prawo
  kreska
  kreska
  prawo
  kreska
  lewo
  lewo
  prawo
  kreska
  lewo
  kreska
  kreska
  lewo
  lewo
  kreska
  lewo
  kreska
  prawo
  prawo
  kreska
  prawo
  kreska
  prawo
  kreska
  lewo
  kreska
  kreska
  lewo
  lewo
  kreska
  lewo
  kreska
  prawo
  prawo
  kreska
  prawo
  kreska
  lewo
  lewo
  prawo
  kreska
  lewo
  kreska
  kreska
  lewo
  lewo
  kreska
  lewo
  kreska
  prawo
  prawo
  kreska
  prawo
  kreska
  lewo
  kreska
  lewo
  kreska
  lewo
  lewo
  kreska
  prawo
  kreska
  prawo
  prawo
  kreska
  kreska
  prawo
  kreska
  lewo
  prawo
  prawo
  kreska
  lewo
  kreska
  lewo
  lewo
  kreska
  prawo
  kreska
  prawo
  prawo
  kreska
  kreska
  prawo
  kreska
  lewo
  prawo
  prawo
  kreska
  lewo
  kreska
  kreska
  lewo
  lewo
  kreska
  lewo
  kreska
  prawo
  prawo
  kreska
  prawo
  kreska
  prawo
  kreska
  lewo
  kreska
  lewo
  lewo
  kreska
  prawo
  kreska
  prawo
  prawo
  kreska
  kreska
  prawo
  kreska
  lewo
  lewo
  prawo
  kreska
  lewo
  kreska
  kreska
  lewo
  lewo
  kreska
  lewo
  kreska
  prawo
  prawo
  kreska
  prawo
  kreska
  prawo
  kreska
  lewo
  kreska
  kreska
  lewo
  lewo
  kreska
  lewo
  kreska
  prawo
  prawo
  kreska
  prawo
  kreska
  lewo
  lewo
  prawo
  kreska
  lewo
  kreska
  kreska
  lewo
  lewo
  kreska
  lewo
  kreska
  prawo
  prawo
  kreska
  prawo
  kreska
  lewo
  kreska
  lewo
  kreska
  lewo
  lewo
  kreska
  prawo
  kreska
  prawo
  prawo
  kreska
  kreska
  prawo
  kreska
  lewo
  prawo
  prawo
  kreska
  lewo
  kreska
  lewo
  lewo
  kreska
  prawo
  kreska
  prawo
  prawo
  kreska
  kreska
  prawo
  kreska
  lewo
  prawo
  prawo
  kreska
  lewo
  kreska
  kreska
  lewo
  lewo
  kreska
  lewo
  kreska
  prawo
  prawo
  kreska
  prawo
  kreska
  lewo
  lewo
  prawo
  kreska
  lewo
  kreska
  lewo
  lewo
  kreska
  prawo
  kreska
  prawo
  prawo
  kreska
  kreska
  prawo
  kreska
  lewo
  lewo
  prawo
  kreska
  lewo
  kreska
  kreska
  lewo
  lewo
  kreska
  lewo
  kreska
  prawo
  prawo
  kreska
  prawo
  kreska
  prawo
  kreska
  lewo
  kreska
  kreska
  lewo
  lewo
  kreska
  lewo
  kreska
  prawo
  prawo
  kreska
  prawo
  kreska
  lewo
  lewo
  prawo
  kreska
  lewo
  kreska
  kreska
  lewo
  lewo
  kreska
  lewo
  kreska
  prawo
  prawo
  kreska
  prawo
  kreska
  lewo
  kreska
  lewo
  kreska
  lewo
  lewo
  kreska
  prawo
  kreska
  prawo
  prawo
  kreska
  kreska
  prawo
  kreska
  lewo
  prawo
  prawo
  kreska
  lewo
  kreska
  lewo
  lewo
  kreska
  prawo
  kreska
  prawo
  prawo
  kreska
  kreska
  prawo
  kreska
  lewo
  prawo
  prawo
  kreska
  lewo
  kreska
  kreska
  lewo
  lewo
  kreska
  lewo
  kreska
  prawo
  prawo
  kreska
  prawo
  kreska
  lewo
  kreska
  lewo
  kreska
  lewo
  lewo
  kreska
  prawo
  kreska
  prawo
  prawo
  kreska
  kreska
  prawo
  kreska
  lewo
  lewo
  prawo
  kreska
  lewo
  kreska
  kreska
  lewo
  lewo
  kreska
  lewo
  kreska
  prawo
  prawo
  kreska
  prawo
  kreska
  lewo
  lewo
  prawo
  kreska
  lewo
  kreska
  kreska
  lewo
  lewo
  kreska
  lewo
  kreska
  prawo
  prawo
  kreska
  prawo
  kreska
  prawo
  kreska
  lewo
  kreska
  lewo
  lewo
  kreska
  prawo
  kreska
  prawo
  prawo
  kreska
  kreska
  prawo
  kreska
  lewo
  prawo
  prawo
  kreska
  lewo
  kreska
  lewo
  lewo
  kreska
  prawo
  kreska
  prawo
  prawo
  kreska
  kreska
  prawo
  kreska
  lewo
  kreska
  lewo
  kreska
  lewo
  lewo
  kreska
  prawo
  kreska
  prawo
  prawo
  kreska
  kreska
  prawo
  kreska
  lewo
  prawo
  prawo
  kreska
  lewo
  kreska
  kreska
  lewo
  lewo
  kreska
  lewo
  kreska
  prawo
  prawo
  kreska
  prawo
  kreska
  lewo
  prawo
  prawo
  kreska
  lewo
  kreska
  lewo
  lewo
  kreska
  prawo
  kreska
  prawo
  prawo
  kreska
  kreska
  prawo
  kreska
  lewo
  lewo
  prawo
  kreska
  lewo
  kreska
  kreska
  lewo
  lewo
  kreska
  lewo
  kreska
  prawo
  prawo
  kreska
  prawo
  kreska
  lewo
  lewo
  prawo
  kreska
  lewo
  kreska
  kreska
  lewo
  lewo
  kreska
  lewo
  kreska
  prawo
  prawo
  kreska
  prawo
  kreska
  prawo
  kreska
  lewo
  kreska
  lewo
  lewo
  kreska
  prawo
  kreska
  prawo
  prawo
  kreska
  kreska
  prawo
  kreska
  lewo
  prawo
  prawo
  kreska
  lewo
  kreska
  lewo
  lewo
  kreska
  prawo
  kreska
  prawo
  prawo
  kreska
  kreska
  prawo
  kreska
  lewo
  kreska
  lewo
  kreska
  lewo
  lewo
  kreska
  prawo
  kreska
  prawo
  prawo
  kreska
  kreska
  prawo
  kreska
  lewo
  prawo
  prawo
  kreska
  lewo
  kreska
  kreska
  lewo
  lewo
  kreska
  lewo
  kreska
  prawo
  prawo
  kreska
  prawo
  kreska
  lewo
  prawo
  prawo
  kreska
  lewo
  kreska
  lewo
  lewo
  kreska
  prawo
  kreska
  prawo
  prawo
  kreska
  kreska
  prawo
  kreska
  lewo
  lewo
  prawo
  kreska
  lewo
  kreska
  kreska
  lewo
  lewo
  kreska
  lewo
  kreska
  prawo
  prawo
  kreska
  prawo
  kreska
  prawo
  kreska
  lewo
  kreska
  kreska
  lewo
  lewo
  kreska
  lewo
  kreska
  prawo
  prawo
  kreska
  prawo
  kreska
  lewo
  lewo
  prawo
  kreska
  lewo
  kreska
  kreska
  lewo
  lewo
  kreska
  lewo
  kreska
  prawo
  prawo
  kreska
  prawo
  kreska
  lewo
  kreska
  lewo
  kreska
  lewo
  lewo
  kreska
  prawo
  kreska
  prawo
  prawo
  kreska
  kreska
  prawo
  kreska
  lewo
  prawo
  prawo
  kreska
  lewo
  kreska
  lewo
  lewo
  kreska
  prawo
  kreska
  prawo
  prawo
  kreska
  kreska
  prawo
  kreska
  lewo
  prawo
  prawo
  kreska
  lewo
  kreska
  kreska
  lewo
  lewo
  kreska
  lewo
  kreska
  prawo
  prawo
  kreska
  prawo
  kreska
  prawo
  kreska
  lewo
  kreska
  lewo
  lewo
  kreska
  prawo
  kreska
  prawo
  prawo
  kreska
  kreska
  prawo
  kreska
  lewo
  lewo
  prawo
  kreska
  lewo
  kreska
  kreska
  lewo
  lewo
  kreska
  lewo
  kreska
  prawo
  prawo
  kreska
  prawo
  kreska
  lewo
  lewo
  prawo
  kreska
  lewo
  kreska
  kreska
  lewo
  lewo
  kreska
  lewo
  kreska
  prawo
  prawo
  kreska
  prawo
  kreska
  prawo
  kreska
  lewo
  kreska
  lewo
  lewo
  kreska
  prawo
  kreska
  prawo
  prawo
  kreska
  kreska
  prawo
  kreska
  lewo
  prawo
  prawo
  kreska
  lewo
  kreska
  lewo
  lewo
  kreska
  prawo
  kreska
  prawo
  prawo
  kreska
  kreska
  prawo
  kreska
  lewo
  kreska
  lewo
  kreska
  lewo
  lewo
  kreska
  prawo
  kreska
  prawo
  prawo
  kreska
  kreska
  prawo
  kreska
  lewo
  prawo
  prawo
  kreska
  lewo
  kreska
  kreska
  lewo
  lewo
  kreska
  lewo
  kreska
  prawo
  prawo
  kreska
  prawo
  kreska
  lewo
  lewo
  prawo
  kreska
  lewo
  kreska
  lewo
  lewo
  kreska
  prawo
  kreska
  prawo
  prawo
  kreska
  kreska
  prawo
  kreska
  lewo
  lewo
  prawo
  kreska
  lewo
  kreska
  kreska
  lewo
  lewo
  kreska
  lewo
  kreska
  prawo
  prawo
  kreska
  prawo
  kreska
  prawo
  kreska
  lewo
  kreska
  kreska
  lewo
  lewo
  kreska
  lewo
  kreska
  prawo
  prawo
  kreska
  prawo
  kreska
  lewo
  lewo
  prawo
  kreska
  lewo
  kreska
  kreska
  lewo
  lewo
  kreska
  lewo
  kreska
  prawo
  prawo
  kreska
  prawo
  kreska
  lewo
  kreska
  lewo
  kreska
  lewo
  lewo
  kreska
  prawo
  kreska
  prawo
  prawo
  kreska
  kreska
  prawo
  kreska
  lewo
  prawo
  prawo
  kreska
  lewo
  kreska
  lewo
  lewo
  kreska
  prawo
  kreska
  prawo
  prawo
  kreska
  kreska
  prawo
  kreska
  lewo
  prawo
  prawo
  kreska
  lewo
  kreska
  kreska
  lewo
  lewo
  kreska
  lewo
  kreska
  prawo
  prawo
  kreska
  prawo
  kreska
  lewo
  lewo
  prawo
  kreska
  lewo
  kreska
  lewo
  lewo
  kreska
  prawo
  kreska
  prawo
  prawo
  kreska
  kreska
  prawo
  kreska
  lewo
  lewo
  prawo
  kreska
  lewo
  kreska
  kreska
  lewo
  lewo
  kreska
  lewo
  kreska
  prawo
  prawo
  kreska
  prawo
  kreska
  prawo
  kreska
  lewo
  kreska
  kreska
  lewo
  lewo
  kreska
  lewo
  kreska
  prawo
  prawo
  kreska
  prawo
  kreska
  lewo
  lewo
  prawo
  kreska
  lewo
  kreska
  kreska
  lewo
  lewo
  kreska
  lewo
  kreska
  prawo
  prawo
  kreska
  prawo
  kreska
  lewo
  kreska
  lewo
  kreska
  lewo
  lewo
  kreska
  prawo
  kreska
  prawo
  prawo
  kreska
  kreska
  prawo
  kreska
  lewo
  prawo
  prawo
  kreska
  lewo
  kreska
  lewo
  lewo
  kreska
  prawo
  kreska
  prawo
  prawo
  kreska
  kreska
  prawo
  kreska
  lewo
  prawo
  prawo
  kreska
  lewo
  kreska
  kreska
  lewo
  lewo
  kreska
  lewo
  kreska
  prawo
  prawo
  kreska
  prawo
  kreska
  prawo
  kreska
  lewo
  kreska
  lewo
  lewo
  kreska
  prawo
  kreska
  prawo
  prawo
  kreska
  kreska
  prawo
  kreska
  lewo
  lewo
  prawo
  kreska
  lewo
  kreska
  kreska
  lewo
  lewo
  kreska
  lewo
  kreska
  prawo
  prawo
  kreska
  prawo
  kreska
  lewo
  lewo
  prawo
  kreska
  lewo
  kreska
  kreska
  lewo
  lewo
  kreska
  lewo
  kreska
  prawo
  prawo
  kreska
  prawo
  kreska
  prawo
  kreska
  lewo
  kreska
  lewo
  lewo
  kreska
  prawo
  kreska
  prawo
  prawo
  kreska
  kreska
  prawo
  kreska
  lewo
  prawo
  prawo
  kreska
  lewo
  kreska
  lewo
  lewo
  kreska
  prawo
  kreska
  prawo
  prawo
  kreska
  kreska
  prawo
  kreska
  lewo
  kreska
  lewo
  kreska
  lewo
  lewo
  kreska
  prawo
  kreska
  prawo
  prawo
  kreska
  kreska
  prawo
  kreska
  lewo
  prawo
  prawo
  kreska
  lewo
  kreska
  kreska
  lewo
  lewo
  kreska
  lewo
  kreska
  prawo
  prawo
  kreska
  prawo
  kreska
  lewo
  prawo
  prawo
  kreska
  lewo
  kreska
  lewo
  lewo
  kreska
  prawo
  kreska
  prawo
  prawo
  kreska
  kreska
  prawo
  kreska
  lewo
  lewo
  prawo
  kreska
  lewo
  kreska
  kreska
  lewo
  lewo
  kreska
  lewo
  kreska
  prawo
  prawo
  kreska
  prawo
  kreska
  lewo
  lewo
  prawo
  kreska
  lewo
  kreska
  kreska
  lewo
  lewo
  kreska
  lewo
  kreska
  prawo
  prawo
  kreska
  prawo
  kreska
  prawo
  kreska
  lewo
  kreska
  lewo
  lewo
  kreska
  prawo
  kreska
  prawo
  prawo
  kreska
  kreska
  prawo
  kreska
  lewo
  prawo
  prawo
  kreska
  lewo
  kreska
  lewo
  lewo
  kreska
  prawo
  kreska
  prawo
  prawo
  kreska
  kreska
  prawo
  kreska
  lewo
  kreska
  lewo
  kreska
  lewo
  lewo
  kreska
  prawo
  kreska
  prawo
  prawo
  kreska
  kreska
  prawo
  kreska
  lewo
  prawo
  prawo
  kreska
  lewo
  kreska
  kreska
  lewo
  lewo
  kreska
  lewo
  kreska
  prawo
  prawo
  kreska
  prawo
  kreska
  lewo
  kreska
  lewo
  kreska
  lewo
  lewo
  kreska
  prawo
  kreska
  prawo
  prawo
  kreska
  kreska
  prawo
  kreska
  lewo
  lewo
  prawo
  kreska
  lewo
  kreska
  kreska
  lewo
  lewo
  kreska
  lewo
  kreska
  prawo
  prawo
  kreska
  prawo
  kreska
  lewo
  lewo
  prawo
  kreska
  lewo
  kreska
  kreska
  lewo
  lewo
  kreska
  lewo
  kreska
  prawo
  prawo
  kreska
  prawo
  kreska
  prawo
  kreska
  lewo
  kreska
  lewo
  lewo
  kreska
  prawo
  kreska
  prawo
  prawo
  kreska
  kreska
  prawo
  kreska
  lewo
  prawo
  prawo
  kreska
  lewo
  kreska
  lewo
  lewo
  kreska
  prawo
  kreska
  prawo
  prawo
  kreska
  kreska
  prawo
  kreska
  lewo
  kreska
  lewo
  kreska
  lewo
  lewo
  kreska
  prawo
  kreska
  prawo
  prawo
  kreska
  kreska
  prawo
  kreska
  lewo
  prawo
  prawo
  kreska
  lewo
  kreska
  kreska
  lewo
  lewo
  kreska
  lewo
  kreska
  prawo
  prawo
  kreska
  prawo
  kreska
  lewo
  prawo
  prawo
  kreska
  lewo
  kreska
  lewo
  lewo
  kreska
  prawo
  kreska
  prawo
  prawo
  kreska
  kreska
  prawo
  kreska
  lewo
  lewo
  prawo
  kreska
  lewo
  kreska
  kreska
  lewo
  lewo
  kreska
  lewo
  kreska
  prawo
  prawo
  kreska
  prawo
  kreska
  prawo
  kreska
  lewo
  kreska
  kreska
  lewo
  lewo
  kreska
  lewo
  kreska
  prawo
  prawo
  kreska
  prawo
  kreska
  lewo
  lewo
  prawo
  kreska
  lewo
  kreska
  kreska
  lewo
  lewo
  kreska
  lewo
  kreska
  prawo
  prawo
  kreska
  prawo
  kreska
  lewo
  kreska
  lewo
  kreska
  lewo
  lewo
  kreska
  prawo
  kreska
  prawo
  prawo
  kreska
  kreska
  prawo
  kreska
  lewo
  prawo
  prawo
  kreska
  lewo
  kreska
  lewo
  lewo
  kreska
  prawo
  kreska
  prawo
  prawo
  kreska
  kreska
  prawo
  kreska
  lewo
  prawo
  prawo
  kreska
  lewo
  kreska
  kreska
  lewo
  lewo
  kreska
  lewo
  kreska
  prawo
  prawo
  kreska
  prawo
  kreska
  lewo
  prawo
  prawo
  kreska
  lewo
  kreska
  lewo
  lewo
  kreska
  prawo
  kreska
  prawo
  prawo
  kreska
  kreska
  prawo
  kreska
  lewo
  lewo
  prawo
  kreska
  lewo
  kreska
  kreska
  lewo
  lewo
  kreska
  lewo
  kreska
  prawo
  prawo
  kreska
  prawo
  kreska
  lewo
  lewo
  prawo
  kreska
  lewo
  kreska
  kreska
  lewo
  lewo
  kreska
  lewo
  kreska
  prawo
  prawo
  kreska
  prawo
  kreska
  prawo
  kreska
  lewo
  kreska
  lewo
  lewo
  kreska
  prawo
  kreska
  prawo
  prawo
  kreska
  kreska
  prawo
  kreska
  lewo
  prawo
  prawo
  kreska
  lewo
  kreska
  lewo
  lewo
  kreska
  prawo
  kreska
  prawo
  prawo
  kreska
  kreska
  prawo
  kreska
  lewo
  kreska
  lewo
  kreska
  lewo
  lewo
  kreska
  prawo
  kreska
  prawo
  prawo
  kreska
  kreska
  prawo
  kreska
  lewo
  prawo
  prawo
  kreska
  lewo
  kreska
  kreska
  lewo
  lewo
  kreska
  lewo
  kreska
  prawo
  prawo
  kreska
  prawo
  kreska
  lewo
  lewo
  prawo
  kreska
  lewo
  kreska
  lewo
  lewo
  kreska
  prawo
  kreska
  prawo
  prawo
  kreska
  kreska
  prawo
  kreska
  lewo
  lewo
  prawo
  kreska
  lewo
  kreska
  kreska
  lewo
  lewo
  kreska
  lewo
  kreska
  prawo
  prawo
  kreska
  prawo
  kreska
  prawo
  kreska
  lewo
  kreska
  kreska
  lewo
  lewo
  kreska
  lewo
  kreska
  prawo
  prawo
  kreska
  prawo
  kreska
  lewo
  lewo
  prawo
  kreska
  lewo
  kreska
  kreska
  lewo
  lewo
  kreska
  lewo
  kreska
  prawo
  prawo
  kreska
  prawo
  kreska
  lewo
  kreska
  lewo
  kreska
  lewo
  lewo
  kreska
  prawo
  kreska
  prawo
  prawo
  kreska
  kreska
  prawo
  kreska
  lewo
  prawo
  prawo
  kreska
  lewo
  kreska
  lewo
  lewo
  kreska
  prawo
  kreska
  prawo
  prawo
  kreska
  kreska
  prawo
  kreska
  lewo
  prawo
  prawo
  kreska
  lewo
  kreska
  kreska
  lewo
  lewo
  kreska
  lewo
  kreska
  prawo
  prawo
  kreska
  prawo
  kreska
  lewo
  lewo
  prawo
  kreska
  lewo
  kreska
  lewo
  lewo
  kreska
  prawo
  kreska
  prawo
  prawo
  kreska
  kreska
  prawo
  kreska
  lewo
  lewo
  prawo
  kreska
  lewo
  kreska
  kreska
  lewo
  lewo
  kreska
  lewo
  kreska
  prawo
  prawo
  kreska
  prawo
  kreska
  prawo
  kreska
  lewo
  kreska
  kreska
  lewo
  lewo
  kreska
  lewo
  kreska
  prawo
  prawo
  kreska
  prawo
  kreska
  lewo
  lewo
  prawo
  kreska
  lewo
  kreska
  kreska
  lewo
  lewo
  kreska
  lewo
  kreska
  prawo
  prawo
  kreska
  prawo
  kreska
  lewo
  kreska
  lewo
  kreska
  lewo
  lewo
  kreska
  prawo
  kreska
  prawo
  prawo
  kreska
  kreska
  prawo
  kreska
  lewo
  prawo
  prawo
  kreska
  lewo
  kreska
  lewo
  lewo
  kreska
  prawo
  kreska
  prawo
  prawo
  kreska
  kreska
  prawo
  kreska
  lewo
  prawo
  prawo
  kreska
  lewo
  kreska
  kreska
  lewo
  lewo
  kreska
  lewo
  kreska
  prawo
  prawo
  kreska
  prawo
  kreska
  prawo
  kreska
  lewo
  kreska
  lewo
  lewo
  kreska
  prawo
  kreska
  prawo
  prawo
  kreska
  kreska
  prawo
  kreska
  lewo
  lewo
  prawo
  kreska
  lewo
  kreska
  kreska
  lewo
  lewo
  kreska
  lewo
  kreska
  prawo
  prawo
  kreska
  prawo
  kreska
  lewo
  lewo
  prawo
  kreska
  lewo
  kreska
  kreska
  lewo
  lewo
  kreska
  lewo
  kreska
  prawo
  prawo
  kreska
  prawo
  kreska
  prawo
  kreska
  lewo
  kreska
  lewo
  lewo
  kreska
  prawo
  kreska
  prawo
  prawo
  kreska
  kreska
  prawo
  kreska
  lewo
  prawo
  prawo
  kreska
  lewo
  kreska
  lewo
  lewo
  kreska
  prawo
  kreska
  prawo
  prawo
  kreska
  kreska
  prawo
  kreska
  lewo
  kreska
  lewo
  kreska
  lewo
  lewo
  kreska
  prawo
  kreska
  prawo
  prawo
  kreska
  kreska
  prawo
  kreska
  lewo
  prawo
  prawo
  kreska
  lewo
  kreska
  kreska
  lewo
  lewo
  kreska
  lewo
  kreska
  prawo
  prawo
  kreska
  prawo
  kreska
  lewo
  prawo
  prawo
  kreska
  lewo
  kreska
  lewo
  lewo
  kreska
  prawo
  kreska
  prawo
  prawo
  kreska
  kreska
  prawo
  kreska
  lewo
  lewo
  prawo
  kreska
  lewo
  kreska
  kreska
  lewo
  lewo
  kreska
  lewo
  kreska
  prawo
  prawo
  kreska
  prawo
  kreska
  lewo
  lewo
  prawo
  kreska
  lewo
  kreska
  kreska
  lewo
  lewo
  kreska
  lewo
  kreska
  prawo
  prawo
  kreska
  prawo
  kreska
  prawo
  kreska
  lewo
  kreska
  lewo
  lewo
  kreska
  prawo
  kreska
  prawo
  prawo
  kreska
  kreska
  prawo
  kreska
  lewo
  prawo
  prawo
  kreska
  lewo
  kreska
  lewo
  lewo
  kreska
  prawo
  kreska
  prawo
  prawo
  kreska
  kreska
  prawo
  kreska
  lewo
  kreska
  lewo
  kreska
  lewo
  lewo
  kreska
  prawo
  kreska
  prawo
  prawo
  kreska
  kreska
  prawo
  kreska
  lewo
  prawo
  prawo
  kreska
  lewo
  kreska
  kreska
  lewo
  lewo
  kreska
  lewo
  kreska
  prawo
  prawo
  kreska
  prawo
  kreska
  lewo
  kreska
  lewo
  kreska
  lewo
  lewo
  kreska
  prawo
  kreska
  prawo
  prawo
  kreska
  kreska
  prawo
  kreska
  lewo
  lewo
  prawo
  kreska
  lewo
  kreska
  kreska
  lewo
  lewo
  kreska
  lewo
  kreska
  prawo
  prawo
  kreska
  prawo
  kreska
  lewo
  lewo
  prawo
  kreska
  lewo
  kreska
  kreska
  lewo
  lewo
  kreska
  lewo
  kreska
  prawo
  prawo
  kreska
  prawo
  kreska
  prawo
  kreska
  lewo
  kreska
  lewo
  lewo
  kreska
  prawo
  kreska
  prawo
  prawo
  kreska
  kreska
  prawo
  kreska
  lewo
  prawo
  prawo
  kreska
  lewo
  kreska
  lewo
  lewo
  kreska
  prawo
  kreska
  prawo
  prawo
  kreska
  kreska
  prawo
  kreska
  lewo
  kreska
  lewo
  kreska
  lewo
  lewo
  kreska
  prawo
  kreska
  prawo
  prawo
  kreska
  kreska
  prawo
  kreska
  lewo
  prawo
  prawo
  kreska
  lewo
  kreska
  kreska
  lewo
  lewo
  kreska
  lewo
  kreska
  prawo
  prawo
  kreska
  prawo
  kreska
  lewo
  prawo
  prawo
  kreska
  lewo
  kreska
  lewo
  lewo
  kreska
  prawo
  kreska
  prawo
  prawo
  kreska
  kreska
  prawo
  kreska
  lewo
  lewo
  prawo
  kreska
  lewo
  kreska
  kreska
  lewo
  lewo
  kreska
  lewo
  kreska
  prawo
  prawo
  kreska
  prawo
  kreska
  prawo
  kreska
  lewo
  kreska
  kreska
  lewo
  lewo
  kreska
  lewo
  kreska
  prawo
  prawo
  kreska
  prawo
  kreska
  lewo
  lewo
  prawo
  kreska
  lewo
  kreska
  kreska
  lewo
  lewo
  kreska
  lewo
  kreska
  prawo
  prawo
  kreska
  prawo
  kreska
  lewo
  kreska
  lewo
  kreska
  lewo
  lewo
  kreska
  prawo
  kreska
  prawo
  prawo
  kreska
  kreska
  prawo
  kreska
  lewo
  prawo
  prawo
  kreska
  lewo
  kreska
  lewo
  lewo
  kreska
  prawo
  kreska
  prawo
  prawo
  kreska
  kreska
  prawo
  kreska
  lewo
  prawo
  prawo
  kreska
  lewo
  kreska
  kreska
  lewo
  lewo
  kreska
  lewo
  kreska
  prawo
  prawo
  kreska
  prawo
  kreska
  lewo
  kreska
  lewo
  kreska
  lewo
  lewo
  kreska
  prawo
  kreska
  prawo
  prawo
  kreska
  kreska
  prawo
  kreska
  lewo
  lewo
  prawo
  kreska
  lewo
  kreska
  kreska
  lewo
  lewo
  kreska
  lewo
  kreska
  prawo
  prawo
  kreska
  prawo
  kreska
  lewo
  lewo
  prawo
  kreska
  lewo
  kreska
  kreska
  lewo
  lewo
  kreska
  lewo
  kreska
  prawo
  prawo
  kreska
  prawo
  kreska
  prawo
  kreska
  lewo
  kreska
  lewo
  lewo
  kreska
  prawo
  kreska
  prawo
  prawo
  kreska
  kreska
  prawo
  kreska
  lewo
  prawo
  prawo
  kreska
  lewo
  kreska
  lewo
  lewo
  kreska
  prawo
  kreska
  prawo
  prawo
  kreska
  kreska
  prawo
  kreska
  lewo
  kreska
  lewo
  kreska
  lewo
  lewo
  kreska
  prawo
  kreska
  prawo
  prawo
  kreska
  kreska
  prawo
  kreska
  lewo
  prawo
  prawo
  kreska
  lewo
  kreska
  kreska
  lewo
  lewo
  kreska
  lewo
  kreska
  prawo
  prawo
  kreska
  prawo
  kreska
  lewo
  lewo
  prawo
  kreska
  lewo
  kreska
  lewo
  lewo
  kreska
  prawo
  kreska
  prawo
  prawo
  kreska
  kreska
  prawo
  kreska
  lewo
  lewo
  prawo
  kreska
  lewo
  kreska
  kreska
  lewo
  lewo
  kreska
  lewo
  kreska
  prawo
  prawo
  kreska
  prawo
  kreska
  prawo
  kreska
  lewo
  kreska
  kreska
  lewo
  lewo
  kreska
  lewo
  kreska
  prawo
  prawo
  kreska
  prawo
  kreska
  lewo
  lewo
  prawo
  kreska
  lewo
  kreska
  kreska
  lewo
  lewo
  kreska
  lewo
  kreska
  prawo
  prawo
  kreska
  prawo
  kreska
  lewo
  kreska
  lewo
  kreska
  lewo
  lewo
  kreska
  prawo
  kreska
  prawo
  prawo
  kreska
  kreska
  prawo
  kreska
  lewo
  prawo
  prawo
  kreska
  lewo
  kreska
  lewo
  lewo
  kreska
  prawo
  kreska
  prawo
  prawo
  kreska
  kreska
  prawo
  kreska
  lewo
  prawo
  prawo
  kreska
  lewo
  kreska
  kreska
  lewo
  lewo
  kreska
  lewo
  kreska
  prawo
  prawo
  kreska
  prawo
  kreska
  lewo
  lewo
  prawo
  kreska
  lewo
  kreska
  lewo
  lewo
  kreska
  prawo
  kreska
  prawo
  prawo
  kreska
  kreska
  prawo
  kreska
  lewo
  lewo
  prawo
  kreska
  lewo
  kreska
  kreska
  lewo
  lewo
  kreska
  lewo
  kreska
  prawo
  prawo
  kreska
  prawo
  kreska
  prawo
  kreska
  lewo
  kreska
  kreska
  lewo
  lewo
  kreska
  lewo
  kreska
  prawo
  prawo
  kreska
  prawo
  kreska
  lewo
  lewo
  prawo
  kreska
  lewo
  kreska
  kreska
  lewo
  lewo
  kreska
  lewo
  kreska
  prawo
  prawo
  kreska
  prawo
  kreska
  lewo
  kreska
  lewo
  kreska
  lewo
  lewo
  kreska
  prawo
  kreska
  prawo
  prawo
  kreska
  kreska
  prawo
  kreska
  lewo
  prawo
  prawo
  kreska
  lewo
  kreska
  lewo
  lewo
  kreska
  prawo
  kreska
  prawo
  prawo
  kreska
  kreska
  prawo
  kreska
  lewo
  prawo
  prawo
  kreska
  lewo
  kreska
  kreska
  lewo
  lewo
  kreska
  lewo
  kreska
  prawo
  prawo
  kreska
  prawo
  kreska
  prawo
  kreska
  lewo
  kreska
  lewo
  lewo
  kreska
  prawo
  kreska
  prawo
  prawo
  kreska
  kreska
  prawo
  kreska
  lewo
  lewo
  prawo
  kreska
  lewo
  kreska
  kreska
  lewo
  lewo
  kreska
  lewo
  kreska
  prawo
  prawo
  kreska
  prawo
  kreska
  lewo
  lewo
  prawo
  kreska
  lewo
  kreska
  kreska
  lewo
  lewo
  kreska
  lewo
  kreska
  prawo
  prawo
  kreska
  prawo
  kreska
  prawo
  kreska
  lewo
  kreska
  lewo
  lewo
  kreska
  prawo
  kreska
  prawo
  prawo
  kreska
  kreska
  prawo
  kreska
  lewo
  prawo
  prawo
  kreska
  lewo
  kreska
  lewo
  lewo
  kreska
  prawo
  kreska
  prawo
  prawo
  kreska
  kreska
  prawo
  kreska
  lewo
  kreska
  lewo
  kreska
  lewo
  lewo
  kreska
  prawo
  kreska
  prawo
  prawo
  kreska
  kreska
  prawo
  kreska
  lewo
  prawo
  prawo
  kreska
  lewo
  kreska
  kreska
  lewo
  lewo
  kreska
  lewo
  kreska
  prawo
  prawo
  kreska
  prawo
  kreska
  lewo
  prawo
  prawo
  kreska
  lewo
  kreska
  lewo
  lewo
  kreska
  prawo
  kreska
  prawo
  prawo
  kreska
  kreska
  prawo
  kreska
  lewo
  lewo
  prawo
  kreska
  lewo
  kreska
  kreska
  lewo
  lewo
  kreska
  lewo
  kreska
  prawo
  prawo
  kreska
  prawo
  kreska
  lewo
  lewo
  prawo
  kreska
  lewo
  kreska
  kreska
  lewo
  lewo
  kreska
  lewo
  kreska
  prawo
  prawo
  kreska
  prawo
  kreska
  prawo
  kreska
  lewo
  kreska
  lewo
  lewo
  kreska
  prawo
  kreska
  prawo
  prawo
  kreska
  kreska
  prawo
  kreska
  lewo
  prawo
  prawo
  kreska
  lewo
  kreska
  lewo
  lewo
  kreska
  prawo
  kreska
  prawo
  prawo
  kreska
  kreska
  prawo
  kreska
  lewo
  kreska
  lewo
  kreska
  lewo
  lewo
  kreska
  prawo
  kreska
  prawo
  prawo
  kreska
  kreska
  prawo
  kreska
  lewo
  prawo
  prawo
  kreska
  lewo
  kreska
  kreska
  lewo
  lewo
  kreska
  lewo
  kreska
  prawo
  prawo
  kreska
  prawo
  kreska
  lewo
  kreska
  lewo
  kreska
  lewo
  lewo
  kreska
  prawo
  kreska
  prawo
  prawo
  kreska
  kreska
  prawo
  kreska
  lewo
  lewo
  prawo
  kreska
  lewo
  kreska
  kreska
  lewo
  lewo
  kreska
  lewo
  kreska
  prawo
  prawo
  kreska
  prawo
  kreska
  lewo
  lewo
  prawo
  kreska
  lewo
  kreska
  kreska
  lewo
  lewo
  kreska
  lewo
  kreska
  prawo
  prawo
  kreska
  prawo
  kreska
  prawo
  kreska
  lewo
  kreska
  lewo
  lewo
  kreska
  prawo
  kreska
  prawo
  prawo
  kreska
  kreska
  prawo
  kreska
  lewo
  prawo
  prawo
  kreska
  lewo
  kreska
  lewo
  lewo
  kreska
  prawo
  kreska
  prawo
  prawo
  kreska
  kreska
  prawo
  kreska
  lewo
  kreska
  lewo
  kreska
  lewo
  lewo
  kreska
  prawo
  kreska
  prawo
  prawo
  kreska
  kreska
  prawo
  kreska
  lewo
  prawo
  prawo
  kreska
  lewo
  kreska
  kreska
  lewo
  lewo
  kreska
  lewo
  kreska
  prawo
  prawo
  kreska
  prawo
  kreska
  lewo
  prawo
  prawo
  kreska
  lewo
  kreska
  lewo
  lewo
  kreska
  prawo
  kreska
  prawo
  prawo
  kreska
  kreska
  prawo
  kreska
  lewo
  lewo
  prawo
  kreska
  lewo
  kreska
  kreska
  lewo
  lewo
  kreska
  lewo
  kreska
  prawo
  prawo
  kreska
  prawo
  kreska
  prawo
  kreska
  lewo
  kreska
  kreska
  lewo
  lewo
  kreska
  lewo
  kreska
  prawo
  prawo
  kreska
  prawo
  kreska
  lewo
  lewo
  prawo
  kreska
  lewo
  kreska
  kreska
  lewo
  lewo
  kreska
  lewo
  kreska
  prawo
  prawo
  kreska
  prawo
  kreska
  lewo
  kreska
  lewo
  kreska
  lewo
  lewo
  kreska
  prawo
  kreska
  prawo
  prawo
  kreska
  kreska
  prawo
  kreska
  lewo
  prawo
  prawo
  kreska
  lewo
  kreska
  lewo
  lewo
  kreska
  prawo
  kreska
  prawo
  prawo
  kreska
  kreska
  prawo
  kreska
  lewo
  prawo
  prawo
  kreska
  lewo
  kreska
  kreska
  lewo
  lewo
  kreska
  lewo
  kreska
  prawo
  prawo
  kreska
  prawo
  kreska
  lewo
  prawo
  prawo
  kreska
  lewo
  kreska
  lewo
  lewo
  kreska
  prawo
  kreska
  prawo
  prawo
  kreska
  kreska
  prawo
  kreska
  lewo
  lewo
  prawo
  kreska
  lewo
  kreska
  kreska
  lewo
  lewo
  kreska
  lewo
  kreska
  prawo
  prawo
  kreska
  prawo
  kreska
  lewo
  lewo
  prawo
  kreska
  lewo
  kreska
  kreska
  lewo
  lewo
  kreska
  lewo
  kreska
  prawo
  prawo
  kreska
  prawo
  kreska
  prawo
  kreska
  lewo
  kreska
  lewo
  lewo
  kreska
  prawo
  kreska
  prawo
  prawo
  kreska
  kreska
  prawo
  kreska
  lewo
  prawo
  prawo
  kreska
  lewo
  kreska
  lewo
  lewo
  kreska
  prawo
  kreska
  prawo
  prawo
  kreska
  kreska
  prawo
  kreska
  lewo
  kreska
  lewo
  kreska
  lewo
  lewo
  kreska
  prawo
  kreska
  prawo
  prawo
  kreska
  kreska
  prawo
  kreska
  lewo
  prawo
  prawo
  kreska
  lewo
  kreska
  kreska
  lewo
  lewo
  kreska
  lewo
  kreska
  prawo
  prawo
  kreska
  prawo
  kreska
  lewo
  lewo
  prawo
  kreska
  lewo
  kreska
  lewo
  lewo
  kreska
  prawo
  kreska
  prawo
  prawo
  kreska
  kreska
  prawo
  kreska
  lewo
  lewo
  prawo
  kreska
  lewo
  kreska
  kreska
  lewo
  lewo
  kreska
  lewo
  kreska
  prawo
  prawo
  kreska
  prawo
  kreska
  prawo
  kreska
  lewo
  kreska
  kreska
  lewo
  lewo
  kreska
  lewo
  kreska
  prawo
  prawo
  kreska
  prawo
  kreska
  lewo
  lewo
  prawo
  kreska
  lewo
  kreska
  kreska
  lewo
  lewo
  kreska
  lewo
  kreska
  prawo
  prawo
  kreska
  prawo
  kreska
  lewo
  kreska
  lewo
  kreska
  lewo
  lewo
  kreska
  prawo
  kreska
  prawo
  prawo
  kreska
  kreska
  prawo
  kreska
  lewo
  prawo
  prawo
  kreska
  lewo
  kreska
  lewo
  lewo
  kreska
  prawo
  kreska
  prawo
  prawo
  kreska
  kreska
  prawo
  kreska
  lewo
  prawo
  prawo
  kreska
  lewo
  kreska
  kreska
  lewo
  lewo
  kreska
  lewo
  kreska
  prawo
  prawo
  kreska
  prawo
  kreska
  prawo
  kreska
  lewo
  kreska
  lewo
  lewo
  kreska
  prawo
  kreska
  prawo
  prawo
  kreska
  kreska
  prawo
  kreska
  lewo
  lewo
  prawo
  kreska
  lewo
  kreska
  kreska
  lewo
  lewo
  kreska
  lewo
  kreska
  prawo
  prawo
  kreska
  prawo
  kreska
  prawo
  kreska
  lewo
  kreska
  kreska
  lewo
  lewo
  kreska
  lewo
  kreska
  prawo
  prawo
  kreska
  prawo
  kreska
  lewo
  lewo
  prawo
  kreska
  lewo
  kreska
  kreska
  lewo
  lewo
  kreska
  lewo
  kreska
  prawo
  prawo
  kreska
  prawo
  kreska
  lewo
  kreska
  lewo
  kreska
  lewo
  lewo
  kreska
  prawo
  kreska
  prawo
  prawo
  kreska
  kreska
  prawo
  kreska
  lewo
  prawo
  prawo
  kreska
  lewo
  kreska
  lewo
  lewo
  kreska
  prawo
  kreska
  prawo
  prawo
  kreska
  kreska
  prawo
  kreska
  lewo
  prawo
  prawo
  kreska
  lewo
  kreska
  kreska
  lewo
  lewo
  kreska
  lewo
  kreska
  prawo
  prawo
  kreska
  prawo
  kreska
  lewo
  lewo
  prawo
  kreska
  lewo
  kreska
  lewo
  lewo
  kreska
  prawo
  kreska
  prawo
  prawo
  kreska
  kreska
  prawo
  kreska
  lewo
  lewo
  prawo
  kreska
  lewo
  kreska
  kreska
  lewo
  lewo
  kreska
  lewo
  kreska
  prawo
  prawo
  kreska
  prawo
  kreska
  prawo
  kreska
  lewo
  kreska
  kreska
  lewo
  lewo
  kreska
  lewo
  kreska
  prawo
  prawo
  kreska
  prawo
  kreska
  lewo
  lewo
  prawo
  kreska
  lewo
  kreska
  kreska
  lewo
  lewo
  kreska
  lewo
  kreska
  prawo
  prawo
  kreska
  prawo
  kreska
  lewo
  kreska
  lewo
  kreska
  lewo
  lewo
  kreska
  prawo
  kreska
  prawo
  prawo
  kreska
  kreska
  prawo
  kreska
  lewo
  prawo
  prawo
  kreska
  lewo
  kreska
  lewo
  lewo
  kreska
  prawo
  kreska
  prawo
  prawo
  kreska
  kreska
  prawo
  kreska
  lewo
  prawo
  prawo
  kreska
  lewo
  kreska
  kreska
  lewo
  lewo
  kreska
  lewo
  kreska
  prawo
  prawo
  kreska
  prawo
  kreska
  lewo
  kreska
  lewo
  kreska
  lewo
  lewo
  kreska
  prawo
  kreska
  prawo
  prawo
  kreska
  kreska
  prawo
  kreska
  lewo
  lewo
  prawo
  kreska
  lewo
  kreska
  kreska
  lewo
  lewo
  kreska
  lewo
  kreska
  prawo
  prawo
  kreska
  prawo
  kreska
  lewo
  lewo
  prawo
  kreska
  lewo
  kreska
  kreska
  lewo
  lewo
  kreska
  lewo
  kreska
  prawo
  prawo
  kreska
  prawo
  kreska
  prawo
  kreska
  lewo
  kreska
  lewo
  lewo
  kreska
  prawo
  kreska
  prawo
  prawo
  kreska
  kreska
  prawo
  kreska
  lewo
  prawo
  prawo
  kreska
  lewo
  kreska
  lewo
  lewo
  kreska
  prawo
  kreska
  prawo
  prawo
  kreska
  kreska
  prawo
  kreska
  lewo
  kreska
  lewo
  kreska
  lewo
  lewo
  kreska
  prawo
  kreska
  prawo
  prawo
  kreska
  kreska
  prawo
  kreska
  lewo
  prawo
  prawo
  kreska
  lewo
  kreska
  kreska
  lewo
  lewo
  kreska
  lewo
  kreska
  prawo
  prawo
  kreska
  prawo
  kreska
  lewo
  prawo
  prawo
  kreska
  lewo
  kreska
  lewo
  lewo
  kreska
  prawo
  kreska
  prawo
  prawo
  kreska
  kreska
  prawo
  kreska
  lewo
  lewo
  prawo
  kreska
  lewo
  kreska
  kreska
  lewo
  lewo
  kreska
  lewo
  kreska
  prawo
  prawo
  kreska
  prawo
  kreska
  lewo
  lewo
  prawo
  kreska
  lewo
  kreska
  kreska
  lewo
  lewo
  kreska
  lewo
  kreska
  prawo
  prawo
  kreska
  prawo
  kreska
  prawo
  kreska
  lewo
  kreska
  lewo
  lewo
  kreska
  prawo
  kreska
  prawo
  prawo
  kreska
  kreska
  prawo
  kreska
  lewo
  prawo
  prawo
  kreska
  lewo
  kreska
  lewo
  lewo
  kreska
  prawo
  kreska
  prawo
  prawo
  kreska
  kreska
  prawo
  kreska
  lewo
  kreska
  lewo
  kreska
  lewo
  lewo
  kreska
  prawo
  kreska
  prawo
  prawo
  kreska
  kreska
  prawo
  kreska
  lewo
  prawo
  prawo
  kreska
  lewo
  kreska
  kreska
  lewo
  lewo
  kreska
  lewo
  kreska
  prawo
  prawo
  kreska
  prawo
  kreska
  lewo
  prawo
  prawo
  kreska
  lewo
  kreska
  lewo
  lewo
  kreska
  prawo
  kreska
  prawo
  prawo
  kreska
  kreska
  prawo
  kreska
  lewo
  lewo
  prawo
  kreska
  lewo
  kreska
  kreska
  lewo
  lewo
  kreska
  lewo
  kreska
  prawo
  prawo
  kreska
  prawo
  kreska
  prawo
  kreska
  lewo
  kreska
  kreska
  lewo
  lewo
  kreska
  lewo
  kreska
  prawo
  prawo
  kreska
  prawo
  kreska
  lewo
  lewo
  prawo
  kreska
  lewo
  kreska
  kreska
  lewo
  lewo
  kreska
  lewo
  kreska
  prawo
  prawo
  kreska
  prawo
  kreska
  lewo
  kreska
  lewo
  kreska
  lewo
  lewo
  kreska
  prawo
  kreska
  prawo
  prawo
  kreska
  kreska
  prawo
  kreska
  lewo
  prawo
  prawo
  kreska
  lewo
  kreska
  lewo
  lewo
  kreska
  prawo
  kreska
  prawo
  prawo
  kreska
  kreska
  prawo
  kreska
  lewo
  prawo
  prawo
  kreska
  lewo
  kreska
  kreska
  lewo
  lewo
  kreska
  lewo
  kreska
  prawo
  prawo
  kreska
  prawo
  kreska
  lewo
  showpage
%%Trailer
%%EOF
