%!PS-Adobe-3.0
%%Orientation: Portrait
%%DocumentMedia: a4 595 842 80 () ()
%%Pages: 1
%%EndComments
%%EndProlog
%%BeginSetup
  << /PageSize [595 842] /Orientation 0 >> setpagedevice
%%EndSetup
%%Page: 1 1
  138 580 moveto
  5 0 rlineto
  -90 rotate
  5 0 rlineto
  90 rotate
  5 0 rlineto
  90 rotate
  5 0 rlineto
  5 0 rlineto
  -90 rotate
  5 0 rlineto
  -90 rotate
  5 0 rlineto
  90 rotate
  5 0 rlineto
  -90 rotate
  5 0 rlineto
  -90 rotate
  5 0 rlineto
  90 rotate
  5 0 rlineto
  90 rotate
  5 0 rlineto
  5 0 rlineto
  -90 rotate
  5 0 rlineto
  -90 rotate
  5 0 rlineto
  90 rotate
  5 0 rlineto
  90 rotate
  5 0 rlineto
  -90 rotate
  5 0 rlineto
  90 rotate
  5 0 rlineto
  90 rotate
  5 0 rlineto
  5 0 rlineto
  -90 rotate
  5 0 rlineto
  -90 rotate
  5 0 rlineto
  90 rotate
  5 0 rlineto
  90 rotate
  5 0 rlineto
  -90 rotate
  5 0 rlineto
  90 rotate
  5 0 rlineto
  90 rotate
  5 0 rlineto
  5 0 rlineto
  -90 rotate
  5 0 rlineto
  -90 rotate
  5 0 rlineto
  90 rotate
  5 0 rlineto
  5 0 rlineto
  -90 rotate
  5 0 rlineto
  90 rotate
  5 0 rlineto
  90 rotate
  5 0 rlineto
  5 0 rlineto
  -90 rotate
  5 0 rlineto
  -90 rotate
  5 0 rlineto
  90 rotate
  5 0 rlineto
  -90 rotate
  5 0 rlineto
  -90 rotate
  5 0 rlineto
  90 rotate
  5 0 rlineto
  90 rotate
  5 0 rlineto
  5 0 rlineto
  -90 rotate
  5 0 rlineto
  -90 rotate
  5 0 rlineto
  90 rotate
  5 0 rlineto
  -90 rotate
  5 0 rlineto
  -90 rotate
  5 0 rlineto
  90 rotate
  5 0 rlineto
  90 rotate
  5 0 rlineto
  5 0 rlineto
  -90 rotate
  5 0 rlineto
  -90 rotate
  5 0 rlineto
  90 rotate
  5 0 rlineto
  90 rotate
  5 0 rlineto
  -90 rotate
  5 0 rlineto
  90 rotate
  5 0 rlineto
  90 rotate
  5 0 rlineto
  5 0 rlineto
  -90 rotate
  5 0 rlineto
  -90 rotate
  5 0 rlineto
  90 rotate
  5 0 rlineto
  -90 rotate
  5 0 rlineto
  -90 rotate
  5 0 rlineto
  90 rotate
  5 0 rlineto
  90 rotate
  5 0 rlineto
  5 0 rlineto
  -90 rotate
  5 0 rlineto
  -90 rotate
  5 0 rlineto
  90 rotate
  5 0 rlineto
  -90 rotate
  5 0 rlineto
  -90 rotate
  5 0 rlineto
  90 rotate
  5 0 rlineto
  90 rotate
  5 0 rlineto
  5 0 rlineto
  -90 rotate
  5 0 rlineto
  -90 rotate
  5 0 rlineto
  90 rotate
  5 0 rlineto
  90 rotate
  5 0 rlineto
  -90 rotate
  5 0 rlineto
  90 rotate
  5 0 rlineto
  90 rotate
  5 0 rlineto
  5 0 rlineto
  -90 rotate
  5 0 rlineto
  -90 rotate
  5 0 rlineto
  90 rotate
  5 0 rlineto
  90 rotate
  5 0 rlineto
  -90 rotate
  5 0 rlineto
  90 rotate
  5 0 rlineto
  90 rotate
  5 0 rlineto
  5 0 rlineto
  -90 rotate
  5 0 rlineto
  -90 rotate
  5 0 rlineto
  90 rotate
  5 0 rlineto
  5 0 rlineto
  -90 rotate
  5 0 rlineto
  90 rotate
  5 0 rlineto
  90 rotate
  5 0 rlineto
  5 0 rlineto
  -90 rotate
  5 0 rlineto
  -90 rotate
  5 0 rlineto
  90 rotate
  5 0 rlineto
  -90 rotate
  5 0 rlineto
  -90 rotate
  5 0 rlineto
  90 rotate
  5 0 rlineto
  90 rotate
  5 0 rlineto
  5 0 rlineto
  -90 rotate
  5 0 rlineto
  -90 rotate
  5 0 rlineto
  90 rotate
  5 0 rlineto
  -90 rotate
  5 0 rlineto
  -90 rotate
  5 0 rlineto
  90 rotate
  5 0 rlineto
  90 rotate
  5 0 rlineto
  5 0 rlineto
  -90 rotate
  5 0 rlineto
  -90 rotate
  5 0 rlineto
  90 rotate
  5 0 rlineto
  90 rotate
  5 0 rlineto
  -90 rotate
  5 0 rlineto
  90 rotate
  5 0 rlineto
  90 rotate
  5 0 rlineto
  5 0 rlineto
  -90 rotate
  5 0 rlineto
  -90 rotate
  5 0 rlineto
  90 rotate
  5 0 rlineto
  90 rotate
  5 0 rlineto
  -90 rotate
  5 0 rlineto
  90 rotate
  5 0 rlineto
  90 rotate
  5 0 rlineto
  5 0 rlineto
  -90 rotate
  5 0 rlineto
  -90 rotate
  5 0 rlineto
  90 rotate
  5 0 rlineto
  -90 rotate
  5 0 rlineto
  -90 rotate
  5 0 rlineto
  90 rotate
  5 0 rlineto
  90 rotate
  5 0 rlineto
  5 0 rlineto
  -90 rotate
  5 0 rlineto
  -90 rotate
  5 0 rlineto
  90 rotate
  5 0 rlineto
  90 rotate
  5 0 rlineto
  -90 rotate
  5 0 rlineto
  90 rotate
  5 0 rlineto
  90 rotate
  5 0 rlineto
  5 0 rlineto
  -90 rotate
  5 0 rlineto
  -90 rotate
  5 0 rlineto
  90 rotate
  5 0 rlineto
  90 rotate
  5 0 rlineto
  -90 rotate
  5 0 rlineto
  90 rotate
  5 0 rlineto
  90 rotate
  5 0 rlineto
  5 0 rlineto
  -90 rotate
  5 0 rlineto
  -90 rotate
  5 0 rlineto
  90 rotate
  5 0 rlineto
  5 0 rlineto
  -90 rotate
  5 0 rlineto
  90 rotate
  5 0 rlineto
  90 rotate
  5 0 rlineto
  5 0 rlineto
  -90 rotate
  5 0 rlineto
  -90 rotate
  5 0 rlineto
  90 rotate
  5 0 rlineto
  -90 rotate
  5 0 rlineto
  -90 rotate
  5 0 rlineto
  90 rotate
  5 0 rlineto
  90 rotate
  5 0 rlineto
  5 0 rlineto
  -90 rotate
  5 0 rlineto
  -90 rotate
  5 0 rlineto
  90 rotate
  5 0 rlineto
  -90 rotate
  5 0 rlineto
  -90 rotate
  5 0 rlineto
  90 rotate
  5 0 rlineto
  90 rotate
  5 0 rlineto
  5 0 rlineto
  -90 rotate
  5 0 rlineto
  -90 rotate
  5 0 rlineto
  90 rotate
  5 0 rlineto
  90 rotate
  5 0 rlineto
  -90 rotate
  5 0 rlineto
  90 rotate
  5 0 rlineto
  90 rotate
  5 0 rlineto
  5 0 rlineto
  -90 rotate
  5 0 rlineto
  -90 rotate
  5 0 rlineto
  90 rotate
  5 0 rlineto
  90 rotate
  5 0 rlineto
  -90 rotate
  5 0 rlineto
  90 rotate
  5 0 rlineto
  90 rotate
  5 0 rlineto
  5 0 rlineto
  -90 rotate
  5 0 rlineto
  -90 rotate
  5 0 rlineto
  90 rotate
  5 0 rlineto
  -90 rotate
  5 0 rlineto
  -90 rotate
  5 0 rlineto
  90 rotate
  5 0 rlineto
  90 rotate
  5 0 rlineto
  5 0 rlineto
  -90 rotate
  5 0 rlineto
  -90 rotate
  5 0 rlineto
  90 rotate
  5 0 rlineto
  90 rotate
  5 0 rlineto
  -90 rotate
  5 0 rlineto
  90 rotate
  5 0 rlineto
  90 rotate
  5 0 rlineto
  5 0 rlineto
  -90 rotate
  5 0 rlineto
  -90 rotate
  5 0 rlineto
  90 rotate
  5 0 rlineto
  90 rotate
  5 0 rlineto
  -90 rotate
  5 0 rlineto
  90 rotate
  5 0 rlineto
  90 rotate
  5 0 rlineto
  5 0 rlineto
  -90 rotate
  5 0 rlineto
  -90 rotate
  5 0 rlineto
  90 rotate
  5 0 rlineto
  5 0 rlineto
  -90 rotate
  5 0 rlineto
  90 rotate
  5 0 rlineto
  90 rotate
  5 0 rlineto
  5 0 rlineto
  -90 rotate
  5 0 rlineto
  -90 rotate
  5 0 rlineto
  90 rotate
  5 0 rlineto
  -90 rotate
  5 0 rlineto
  -90 rotate
  5 0 rlineto
  90 rotate
  5 0 rlineto
  90 rotate
  5 0 rlineto
  5 0 rlineto
  -90 rotate
  5 0 rlineto
  -90 rotate
  5 0 rlineto
  90 rotate
  5 0 rlineto
  -90 rotate
  5 0 rlineto
  -90 rotate
  5 0 rlineto
  90 rotate
  5 0 rlineto
  90 rotate
  5 0 rlineto
  5 0 rlineto
  -90 rotate
  5 0 rlineto
  -90 rotate
  5 0 rlineto
  90 rotate
  5 0 rlineto
  90 rotate
  5 0 rlineto
  -90 rotate
  5 0 rlineto
  90 rotate
  5 0 rlineto
  90 rotate
  5 0 rlineto
  5 0 rlineto
  -90 rotate
  5 0 rlineto
  -90 rotate
  5 0 rlineto
  90 rotate
  5 0 rlineto
  5 0 rlineto
  -90 rotate
  5 0 rlineto
  90 rotate
  5 0 rlineto
  90 rotate
  5 0 rlineto
  5 0 rlineto
  -90 rotate
  5 0 rlineto
  -90 rotate
  5 0 rlineto
  90 rotate
  5 0 rlineto
  -90 rotate
  5 0 rlineto
  -90 rotate
  5 0 rlineto
  90 rotate
  5 0 rlineto
  90 rotate
  5 0 rlineto
  5 0 rlineto
  -90 rotate
  5 0 rlineto
  -90 rotate
  5 0 rlineto
  90 rotate
  5 0 rlineto
  90 rotate
  5 0 rlineto
  -90 rotate
  5 0 rlineto
  90 rotate
  5 0 rlineto
  90 rotate
  5 0 rlineto
  5 0 rlineto
  -90 rotate
  5 0 rlineto
  -90 rotate
  5 0 rlineto
  90 rotate
  5 0 rlineto
  90 rotate
  5 0 rlineto
  -90 rotate
  5 0 rlineto
  90 rotate
  5 0 rlineto
  90 rotate
  5 0 rlineto
  5 0 rlineto
  -90 rotate
  5 0 rlineto
  -90 rotate
  5 0 rlineto
  90 rotate
  5 0 rlineto
  5 0 rlineto
  -90 rotate
  5 0 rlineto
  90 rotate
  5 0 rlineto
  90 rotate
  5 0 rlineto
  5 0 rlineto
  -90 rotate
  5 0 rlineto
  -90 rotate
  5 0 rlineto
  90 rotate
  5 0 rlineto
  -90 rotate
  5 0 rlineto
  -90 rotate
  5 0 rlineto
  90 rotate
  5 0 rlineto
  90 rotate
  5 0 rlineto
  5 0 rlineto
  -90 rotate
  5 0 rlineto
  -90 rotate
  5 0 rlineto
  90 rotate
  5 0 rlineto
  -90 rotate
  5 0 rlineto
  -90 rotate
  5 0 rlineto
  90 rotate
  5 0 rlineto
  90 rotate
  5 0 rlineto
  5 0 rlineto
  -90 rotate
  5 0 rlineto
  -90 rotate
  5 0 rlineto
  90 rotate
  5 0 rlineto
  90 rotate
  5 0 rlineto
  -90 rotate
  5 0 rlineto
  90 rotate
  5 0 rlineto
  90 rotate
  5 0 rlineto
  5 0 rlineto
  -90 rotate
  5 0 rlineto
  -90 rotate
  5 0 rlineto
  90 rotate
  5 0 rlineto
  -90 rotate
  5 0 rlineto
  -90 rotate
  5 0 rlineto
  90 rotate
  5 0 rlineto
  90 rotate
  5 0 rlineto
  5 0 rlineto
  -90 rotate
  5 0 rlineto
  -90 rotate
  5 0 rlineto
  90 rotate
  5 0 rlineto
  -90 rotate
  5 0 rlineto
  -90 rotate
  5 0 rlineto
  90 rotate
  5 0 rlineto
  90 rotate
  5 0 rlineto
  5 0 rlineto
  -90 rotate
  5 0 rlineto
  -90 rotate
  5 0 rlineto
  90 rotate
  5 0 rlineto
  90 rotate
  5 0 rlineto
  -90 rotate
  5 0 rlineto
  90 rotate
  5 0 rlineto
  90 rotate
  5 0 rlineto
  5 0 rlineto
  -90 rotate
  5 0 rlineto
  -90 rotate
  5 0 rlineto
  90 rotate
  5 0 rlineto
  90 rotate
  5 0 rlineto
  -90 rotate
  5 0 rlineto
  90 rotate
  5 0 rlineto
  90 rotate
  5 0 rlineto
  5 0 rlineto
  -90 rotate
  5 0 rlineto
  -90 rotate
  5 0 rlineto
  90 rotate
  5 0 rlineto
  5 0 rlineto
  -90 rotate
  5 0 rlineto
  90 rotate
  5 0 rlineto
  90 rotate
  5 0 rlineto
  5 0 rlineto
  -90 rotate
  5 0 rlineto
  -90 rotate
  5 0 rlineto
  90 rotate
  5 0 rlineto
  -90 rotate
  5 0 rlineto
  -90 rotate
  5 0 rlineto
  90 rotate
  5 0 rlineto
  90 rotate
  5 0 rlineto
  5 0 rlineto
  -90 rotate
  5 0 rlineto
  -90 rotate
  5 0 rlineto
  90 rotate
  5 0 rlineto
  -90 rotate
  5 0 rlineto
  -90 rotate
  5 0 rlineto
  90 rotate
  5 0 rlineto
  90 rotate
  5 0 rlineto
  5 0 rlineto
  -90 rotate
  5 0 rlineto
  -90 rotate
  5 0 rlineto
  90 rotate
  5 0 rlineto
  90 rotate
  5 0 rlineto
  -90 rotate
  5 0 rlineto
  90 rotate
  5 0 rlineto
  90 rotate
  5 0 rlineto
  5 0 rlineto
  -90 rotate
  5 0 rlineto
  -90 rotate
  5 0 rlineto
  90 rotate
  5 0 rlineto
  -90 rotate
  5 0 rlineto
  -90 rotate
  5 0 rlineto
  90 rotate
  5 0 rlineto
  90 rotate
  5 0 rlineto
  5 0 rlineto
  -90 rotate
  5 0 rlineto
  -90 rotate
  5 0 rlineto
  90 rotate
  5 0 rlineto
  -90 rotate
  5 0 rlineto
  -90 rotate
  5 0 rlineto
  90 rotate
  5 0 rlineto
  90 rotate
  5 0 rlineto
  5 0 rlineto
  -90 rotate
  5 0 rlineto
  -90 rotate
  5 0 rlineto
  90 rotate
  5 0 rlineto
  90 rotate
  5 0 rlineto
  -90 rotate
  5 0 rlineto
  90 rotate
  5 0 rlineto
  90 rotate
  5 0 rlineto
  5 0 rlineto
  -90 rotate
  5 0 rlineto
  -90 rotate
  5 0 rlineto
  90 rotate
  5 0 rlineto
  90 rotate
  5 0 rlineto
  -90 rotate
  5 0 rlineto
  90 rotate
  5 0 rlineto
  90 rotate
  5 0 rlineto
  5 0 rlineto
  -90 rotate
  5 0 rlineto
  -90 rotate
  5 0 rlineto
  90 rotate
  5 0 rlineto
  5 0 rlineto
  -90 rotate
  5 0 rlineto
  90 rotate
  5 0 rlineto
  90 rotate
  5 0 rlineto
  5 0 rlineto
  -90 rotate
  5 0 rlineto
  -90 rotate
  5 0 rlineto
  90 rotate
  5 0 rlineto
  -90 rotate
  5 0 rlineto
  -90 rotate
  5 0 rlineto
  90 rotate
  5 0 rlineto
  90 rotate
  5 0 rlineto
  5 0 rlineto
  -90 rotate
  5 0 rlineto
  -90 rotate
  5 0 rlineto
  90 rotate
  5 0 rlineto
  -90 rotate
  5 0 rlineto
  -90 rotate
  5 0 rlineto
  90 rotate
  5 0 rlineto
  90 rotate
  5 0 rlineto
  5 0 rlineto
  -90 rotate
  5 0 rlineto
  -90 rotate
  5 0 rlineto
  90 rotate
  5 0 rlineto
  90 rotate
  5 0 rlineto
  -90 rotate
  5 0 rlineto
  90 rotate
  5 0 rlineto
  90 rotate
  5 0 rlineto
  5 0 rlineto
  -90 rotate
  5 0 rlineto
  -90 rotate
  5 0 rlineto
  90 rotate
  5 0 rlineto
  90 rotate
  5 0 rlineto
  -90 rotate
  5 0 rlineto
  90 rotate
  5 0 rlineto
  90 rotate
  5 0 rlineto
  5 0 rlineto
  -90 rotate
  5 0 rlineto
  -90 rotate
  5 0 rlineto
  90 rotate
  5 0 rlineto
  -90 rotate
  5 0 rlineto
  -90 rotate
  5 0 rlineto
  90 rotate
  5 0 rlineto
  90 rotate
  5 0 rlineto
  5 0 rlineto
  -90 rotate
  5 0 rlineto
  -90 rotate
  5 0 rlineto
  90 rotate
  5 0 rlineto
  90 rotate
  5 0 rlineto
  -90 rotate
  5 0 rlineto
  90 rotate
  5 0 rlineto
  90 rotate
  5 0 rlineto
  5 0 rlineto
  -90 rotate
  5 0 rlineto
  -90 rotate
  5 0 rlineto
  90 rotate
  5 0 rlineto
  90 rotate
  5 0 rlineto
  -90 rotate
  5 0 rlineto
  90 rotate
  5 0 rlineto
  90 rotate
  5 0 rlineto
  5 0 rlineto
  -90 rotate
  5 0 rlineto
  -90 rotate
  5 0 rlineto
  90 rotate
  5 0 rlineto
  5 0 rlineto
  -90 rotate
  5 0 rlineto
  90 rotate
  5 0 rlineto
  90 rotate
  5 0 rlineto
  5 0 rlineto
  -90 rotate
  5 0 rlineto
  -90 rotate
  5 0 rlineto
  90 rotate
  5 0 rlineto
  -90 rotate
  5 0 rlineto
  -90 rotate
  5 0 rlineto
  90 rotate
  5 0 rlineto
  90 rotate
  5 0 rlineto
  5 0 rlineto
  -90 rotate
  5 0 rlineto
  -90 rotate
  5 0 rlineto
  90 rotate
  5 0 rlineto
  -90 rotate
  5 0 rlineto
  -90 rotate
  5 0 rlineto
  90 rotate
  5 0 rlineto
  90 rotate
  5 0 rlineto
  5 0 rlineto
  -90 rotate
  5 0 rlineto
  -90 rotate
  5 0 rlineto
  90 rotate
  5 0 rlineto
  90 rotate
  5 0 rlineto
  -90 rotate
  5 0 rlineto
  90 rotate
  5 0 rlineto
  90 rotate
  5 0 rlineto
  5 0 rlineto
  -90 rotate
  5 0 rlineto
  -90 rotate
  5 0 rlineto
  90 rotate
  5 0 rlineto
  -90 rotate
  5 0 rlineto
  -90 rotate
  5 0 rlineto
  90 rotate
  5 0 rlineto
  90 rotate
  5 0 rlineto
  5 0 rlineto
  -90 rotate
  5 0 rlineto
  -90 rotate
  5 0 rlineto
  90 rotate
  5 0 rlineto
  -90 rotate
  5 0 rlineto
  -90 rotate
  5 0 rlineto
  90 rotate
  5 0 rlineto
  90 rotate
  5 0 rlineto
  5 0 rlineto
  -90 rotate
  5 0 rlineto
  -90 rotate
  5 0 rlineto
  90 rotate
  5 0 rlineto
  90 rotate
  5 0 rlineto
  -90 rotate
  5 0 rlineto
  90 rotate
  5 0 rlineto
  90 rotate
  5 0 rlineto
  5 0 rlineto
  -90 rotate
  5 0 rlineto
  -90 rotate
  5 0 rlineto
  90 rotate
  5 0 rlineto
  90 rotate
  5 0 rlineto
  -90 rotate
  5 0 rlineto
  90 rotate
  5 0 rlineto
  90 rotate
  5 0 rlineto
  5 0 rlineto
  -90 rotate
  5 0 rlineto
  -90 rotate
  5 0 rlineto
  90 rotate
  5 0 rlineto
  5 0 rlineto
  -90 rotate
  5 0 rlineto
  90 rotate
  5 0 rlineto
  90 rotate
  5 0 rlineto
  5 0 rlineto
  -90 rotate
  5 0 rlineto
  -90 rotate
  5 0 rlineto
  90 rotate
  5 0 rlineto
  -90 rotate
  5 0 rlineto
  -90 rotate
  5 0 rlineto
  90 rotate
  5 0 rlineto
  90 rotate
  5 0 rlineto
  5 0 rlineto
  -90 rotate
  5 0 rlineto
  -90 rotate
  5 0 rlineto
  90 rotate
  5 0 rlineto
  -90 rotate
  5 0 rlineto
  -90 rotate
  5 0 rlineto
  90 rotate
  5 0 rlineto
  90 rotate
  5 0 rlineto
  5 0 rlineto
  -90 rotate
  5 0 rlineto
  -90 rotate
  5 0 rlineto
  90 rotate
  5 0 rlineto
  90 rotate
  5 0 rlineto
  -90 rotate
  5 0 rlineto
  90 rotate
  5 0 rlineto
  90 rotate
  5 0 rlineto
  5 0 rlineto
  -90 rotate
  5 0 rlineto
  -90 rotate
  5 0 rlineto
  90 rotate
  5 0 rlineto
  -90 rotate
  5 0 rlineto
  -90 rotate
  5 0 rlineto
  90 rotate
  5 0 rlineto
  90 rotate
  5 0 rlineto
  5 0 rlineto
  -90 rotate
  5 0 rlineto
  -90 rotate
  5 0 rlineto
  90 rotate
  5 0 rlineto
  -90 rotate
  5 0 rlineto
  -90 rotate
  5 0 rlineto
  90 rotate
  5 0 rlineto
  90 rotate
  5 0 rlineto
  5 0 rlineto
  -90 rotate
  5 0 rlineto
  -90 rotate
  5 0 rlineto
  90 rotate
  5 0 rlineto
  90 rotate
  5 0 rlineto
  -90 rotate
  5 0 rlineto
  90 rotate
  5 0 rlineto
  90 rotate
  5 0 rlineto
  5 0 rlineto
  -90 rotate
  5 0 rlineto
  -90 rotate
  5 0 rlineto
  90 rotate
  5 0 rlineto
  90 rotate
  5 0 rlineto
  -90 rotate
  5 0 rlineto
  90 rotate
  5 0 rlineto
  90 rotate
  5 0 rlineto
  5 0 rlineto
  -90 rotate
  5 0 rlineto
  -90 rotate
  5 0 rlineto
  90 rotate
  5 0 rlineto
  5 0 rlineto
  -90 rotate
  5 0 rlineto
  90 rotate
  5 0 rlineto
  90 rotate
  5 0 rlineto
  5 0 rlineto
  -90 rotate
  5 0 rlineto
  -90 rotate
  5 0 rlineto
  90 rotate
  5 0 rlineto
  -90 rotate
  5 0 rlineto
  -90 rotate
  5 0 rlineto
  90 rotate
  5 0 rlineto
  90 rotate
  5 0 rlineto
  5 0 rlineto
  -90 rotate
  5 0 rlineto
  -90 rotate
  5 0 rlineto
  90 rotate
  5 0 rlineto
  -90 rotate
  5 0 rlineto
  -90 rotate
  5 0 rlineto
  90 rotate
  5 0 rlineto
  90 rotate
  5 0 rlineto
  5 0 rlineto
  -90 rotate
  5 0 rlineto
  -90 rotate
  5 0 rlineto
  90 rotate
  5 0 rlineto
  90 rotate
  5 0 rlineto
  -90 rotate
  5 0 rlineto
  90 rotate
  5 0 rlineto
  90 rotate
  5 0 rlineto
  5 0 rlineto
  -90 rotate
  5 0 rlineto
  -90 rotate
  5 0 rlineto
  90 rotate
  5 0 rlineto
  90 rotate
  5 0 rlineto
  -90 rotate
  5 0 rlineto
  90 rotate
  5 0 rlineto
  90 rotate
  5 0 rlineto
  5 0 rlineto
  -90 rotate
  5 0 rlineto
  -90 rotate
  5 0 rlineto
  90 rotate
  5 0 rlineto
  -90 rotate
  5 0 rlineto
  -90 rotate
  5 0 rlineto
  90 rotate
  5 0 rlineto
  90 rotate
  5 0 rlineto
  5 0 rlineto
  -90 rotate
  5 0 rlineto
  -90 rotate
  5 0 rlineto
  90 rotate
  5 0 rlineto
  90 rotate
  5 0 rlineto
  -90 rotate
  5 0 rlineto
  90 rotate
  5 0 rlineto
  90 rotate
  5 0 rlineto
  5 0 rlineto
  -90 rotate
  5 0 rlineto
  -90 rotate
  5 0 rlineto
  90 rotate
  5 0 rlineto
  90 rotate
  5 0 rlineto
  -90 rotate
  5 0 rlineto
  90 rotate
  5 0 rlineto
  90 rotate
  5 0 rlineto
  5 0 rlineto
  -90 rotate
  5 0 rlineto
  -90 rotate
  5 0 rlineto
  90 rotate
  5 0 rlineto
  5 0 rlineto
  -90 rotate
  5 0 rlineto
  90 rotate
  5 0 rlineto
  90 rotate
  5 0 rlineto
  5 0 rlineto
  -90 rotate
  5 0 rlineto
  -90 rotate
  5 0 rlineto
  90 rotate
  5 0 rlineto
  -90 rotate
  5 0 rlineto
  -90 rotate
  5 0 rlineto
  90 rotate
  5 0 rlineto
  90 rotate
  5 0 rlineto
  5 0 rlineto
  -90 rotate
  5 0 rlineto
  -90 rotate
  5 0 rlineto
  90 rotate
  5 0 rlineto
  -90 rotate
  5 0 rlineto
  -90 rotate
  5 0 rlineto
  90 rotate
  5 0 rlineto
  90 rotate
  5 0 rlineto
  5 0 rlineto
  -90 rotate
  5 0 rlineto
  -90 rotate
  5 0 rlineto
  90 rotate
  5 0 rlineto
  90 rotate
  5 0 rlineto
  -90 rotate
  5 0 rlineto
  90 rotate
  5 0 rlineto
  90 rotate
  5 0 rlineto
  5 0 rlineto
  -90 rotate
  5 0 rlineto
  -90 rotate
  5 0 rlineto
  90 rotate
  5 0 rlineto
  90 rotate
  5 0 rlineto
  -90 rotate
  5 0 rlineto
  90 rotate
  5 0 rlineto
  90 rotate
  5 0 rlineto
  5 0 rlineto
  -90 rotate
  5 0 rlineto
  -90 rotate
  5 0 rlineto
  90 rotate
  5 0 rlineto
  -90 rotate
  5 0 rlineto
  -90 rotate
  5 0 rlineto
  90 rotate
  5 0 rlineto
  90 rotate
  5 0 rlineto
  5 0 rlineto
  -90 rotate
  5 0 rlineto
  -90 rotate
  5 0 rlineto
  90 rotate
  5 0 rlineto
  90 rotate
  5 0 rlineto
  -90 rotate
  5 0 rlineto
  90 rotate
  5 0 rlineto
  90 rotate
  5 0 rlineto
  5 0 rlineto
  -90 rotate
  5 0 rlineto
  -90 rotate
  5 0 rlineto
  90 rotate
  5 0 rlineto
  90 rotate
  5 0 rlineto
  -90 rotate
  5 0 rlineto
  90 rotate
  5 0 rlineto
  90 rotate
  5 0 rlineto
  5 0 rlineto
  -90 rotate
  5 0 rlineto
  -90 rotate
  5 0 rlineto
  90 rotate
  5 0 rlineto
  5 0 rlineto
  -90 rotate
  5 0 rlineto
  90 rotate
  5 0 rlineto
  90 rotate
  5 0 rlineto
  5 0 rlineto
  -90 rotate
  5 0 rlineto
  -90 rotate
  5 0 rlineto
  90 rotate
  5 0 rlineto
  -90 rotate
  5 0 rlineto
  -90 rotate
  5 0 rlineto
  90 rotate
  5 0 rlineto
  90 rotate
  5 0 rlineto
  5 0 rlineto
  -90 rotate
  5 0 rlineto
  -90 rotate
  5 0 rlineto
  90 rotate
  5 0 rlineto
  -90 rotate
  5 0 rlineto
  -90 rotate
  5 0 rlineto
  90 rotate
  5 0 rlineto
  90 rotate
  5 0 rlineto
  5 0 rlineto
  -90 rotate
  5 0 rlineto
  -90 rotate
  5 0 rlineto
  90 rotate
  5 0 rlineto
  90 rotate
  5 0 rlineto
  -90 rotate
  5 0 rlineto
  90 rotate
  5 0 rlineto
  90 rotate
  5 0 rlineto
  5 0 rlineto
  -90 rotate
  5 0 rlineto
  -90 rotate
  5 0 rlineto
  90 rotate
  5 0 rlineto
  5 0 rlineto
  -90 rotate
  5 0 rlineto
  90 rotate
  5 0 rlineto
  90 rotate
  5 0 rlineto
  5 0 rlineto
  -90 rotate
  5 0 rlineto
  -90 rotate
  5 0 rlineto
  90 rotate
  5 0 rlineto
  -90 rotate
  5 0 rlineto
  -90 rotate
  5 0 rlineto
  90 rotate
  5 0 rlineto
  90 rotate
  5 0 rlineto
  5 0 rlineto
  -90 rotate
  5 0 rlineto
  -90 rotate
  5 0 rlineto
  90 rotate
  5 0 rlineto
  90 rotate
  5 0 rlineto
  -90 rotate
  5 0 rlineto
  90 rotate
  5 0 rlineto
  90 rotate
  5 0 rlineto
  5 0 rlineto
  -90 rotate
  5 0 rlineto
  -90 rotate
  5 0 rlineto
  90 rotate
  5 0 rlineto
  90 rotate
  5 0 rlineto
  -90 rotate
  5 0 rlineto
  90 rotate
  5 0 rlineto
  90 rotate
  5 0 rlineto
  5 0 rlineto
  -90 rotate
  5 0 rlineto
  -90 rotate
  5 0 rlineto
  90 rotate
  5 0 rlineto
  5 0 rlineto
  -90 rotate
  5 0 rlineto
  90 rotate
  5 0 rlineto
  90 rotate
  5 0 rlineto
  5 0 rlineto
  -90 rotate
  5 0 rlineto
  -90 rotate
  5 0 rlineto
  90 rotate
  5 0 rlineto
  -90 rotate
  5 0 rlineto
  -90 rotate
  5 0 rlineto
  90 rotate
  5 0 rlineto
  90 rotate
  5 0 rlineto
  5 0 rlineto
  -90 rotate
  5 0 rlineto
  -90 rotate
  5 0 rlineto
  90 rotate
  5 0 rlineto
  -90 rotate
  5 0 rlineto
  -90 rotate
  5 0 rlineto
  90 rotate
  5 0 rlineto
  90 rotate
  5 0 rlineto
  5 0 rlineto
  -90 rotate
  5 0 rlineto
  -90 rotate
  5 0 rlineto
  90 rotate
  5 0 rlineto
  90 rotate
  5 0 rlineto
  -90 rotate
  5 0 rlineto
  90 rotate
  5 0 rlineto
  90 rotate
  5 0 rlineto
  5 0 rlineto
  -90 rotate
  5 0 rlineto
  -90 rotate
  5 0 rlineto
  90 rotate
  5 0 rlineto
  -90 rotate
  5 0 rlineto
  -90 rotate
  5 0 rlineto
  90 rotate
  5 0 rlineto
  90 rotate
  5 0 rlineto
  5 0 rlineto
  -90 rotate
  5 0 rlineto
  -90 rotate
  5 0 rlineto
  90 rotate
  5 0 rlineto
  -90 rotate
  5 0 rlineto
  -90 rotate
  5 0 rlineto
  90 rotate
  5 0 rlineto
  90 rotate
  5 0 rlineto
  5 0 rlineto
  -90 rotate
  5 0 rlineto
  -90 rotate
  5 0 rlineto
  90 rotate
  5 0 rlineto
  90 rotate
  5 0 rlineto
  -90 rotate
  5 0 rlineto
  90 rotate
  5 0 rlineto
  90 rotate
  5 0 rlineto
  5 0 rlineto
  -90 rotate
  5 0 rlineto
  -90 rotate
  5 0 rlineto
  90 rotate
  5 0 rlineto
  90 rotate
  5 0 rlineto
  -90 rotate
  5 0 rlineto
  90 rotate
  5 0 rlineto
  90 rotate
  5 0 rlineto
  5 0 rlineto
  -90 rotate
  5 0 rlineto
  -90 rotate
  5 0 rlineto
  90 rotate
  5 0 rlineto
  5 0 rlineto
  -90 rotate
  5 0 rlineto
  90 rotate
  5 0 rlineto
  90 rotate
  5 0 rlineto
  5 0 rlineto
  -90 rotate
  5 0 rlineto
  -90 rotate
  5 0 rlineto
  90 rotate
  5 0 rlineto
  -90 rotate
  5 0 rlineto
  -90 rotate
  5 0 rlineto
  90 rotate
  5 0 rlineto
  90 rotate
  5 0 rlineto
  5 0 rlineto
  -90 rotate
  5 0 rlineto
  -90 rotate
  5 0 rlineto
  90 rotate
  5 0 rlineto
  -90 rotate
  5 0 rlineto
  -90 rotate
  5 0 rlineto
  90 rotate
  5 0 rlineto
  90 rotate
  5 0 rlineto
  5 0 rlineto
  -90 rotate
  5 0 rlineto
  -90 rotate
  5 0 rlineto
  90 rotate
  5 0 rlineto
  90 rotate
  5 0 rlineto
  -90 rotate
  5 0 rlineto
  90 rotate
  5 0 rlineto
  90 rotate
  5 0 rlineto
  5 0 rlineto
  -90 rotate
  5 0 rlineto
  -90 rotate
  5 0 rlineto
  90 rotate
  5 0 rlineto
  -90 rotate
  5 0 rlineto
  -90 rotate
  5 0 rlineto
  90 rotate
  5 0 rlineto
  90 rotate
  5 0 rlineto
  5 0 rlineto
  -90 rotate
  5 0 rlineto
  -90 rotate
  5 0 rlineto
  90 rotate
  5 0 rlineto
  -90 rotate
  5 0 rlineto
  -90 rotate
  5 0 rlineto
  90 rotate
  5 0 rlineto
  90 rotate
  5 0 rlineto
  5 0 rlineto
  -90 rotate
  5 0 rlineto
  -90 rotate
  5 0 rlineto
  90 rotate
  5 0 rlineto
  90 rotate
  5 0 rlineto
  -90 rotate
  5 0 rlineto
  90 rotate
  5 0 rlineto
  90 rotate
  5 0 rlineto
  5 0 rlineto
  -90 rotate
  5 0 rlineto
  -90 rotate
  5 0 rlineto
  90 rotate
  5 0 rlineto
  90 rotate
  5 0 rlineto
  -90 rotate
  5 0 rlineto
  90 rotate
  5 0 rlineto
  90 rotate
  5 0 rlineto
  5 0 rlineto
  -90 rotate
  5 0 rlineto
  -90 rotate
  5 0 rlineto
  90 rotate
  5 0 rlineto
  5 0 rlineto
  -90 rotate
  5 0 rlineto
  90 rotate
  5 0 rlineto
  90 rotate
  5 0 rlineto
  5 0 rlineto
  -90 rotate
  5 0 rlineto
  -90 rotate
  5 0 rlineto
  90 rotate
  5 0 rlineto
  -90 rotate
  5 0 rlineto
  -90 rotate
  5 0 rlineto
  90 rotate
  5 0 rlineto
  90 rotate
  5 0 rlineto
  5 0 rlineto
  -90 rotate
  5 0 rlineto
  -90 rotate
  5 0 rlineto
  90 rotate
  5 0 rlineto
  -90 rotate
  5 0 rlineto
  -90 rotate
  5 0 rlineto
  90 rotate
  5 0 rlineto
  90 rotate
  5 0 rlineto
  5 0 rlineto
  -90 rotate
  5 0 rlineto
  -90 rotate
  5 0 rlineto
  90 rotate
  5 0 rlineto
  90 rotate
  5 0 rlineto
  -90 rotate
  5 0 rlineto
  90 rotate
  5 0 rlineto
  90 rotate
  5 0 rlineto
  5 0 rlineto
  -90 rotate
  5 0 rlineto
  -90 rotate
  5 0 rlineto
  90 rotate
  5 0 rlineto
  90 rotate
  5 0 rlineto
  -90 rotate
  5 0 rlineto
  90 rotate
  5 0 rlineto
  90 rotate
  5 0 rlineto
  5 0 rlineto
  -90 rotate
  5 0 rlineto
  -90 rotate
  5 0 rlineto
  90 rotate
  5 0 rlineto
  -90 rotate
  5 0 rlineto
  -90 rotate
  5 0 rlineto
  90 rotate
  5 0 rlineto
  90 rotate
  5 0 rlineto
  5 0 rlineto
  -90 rotate
  5 0 rlineto
  -90 rotate
  5 0 rlineto
  90 rotate
  5 0 rlineto
  90 rotate
  5 0 rlineto
  -90 rotate
  5 0 rlineto
  90 rotate
  5 0 rlineto
  90 rotate
  5 0 rlineto
  5 0 rlineto
  -90 rotate
  5 0 rlineto
  -90 rotate
  5 0 rlineto
  90 rotate
  5 0 rlineto
  90 rotate
  5 0 rlineto
  -90 rotate
  5 0 rlineto
  90 rotate
  5 0 rlineto
  90 rotate
  5 0 rlineto
  5 0 rlineto
  -90 rotate
  5 0 rlineto
  -90 rotate
  5 0 rlineto
  90 rotate
  5 0 rlineto
  5 0 rlineto
  -90 rotate
  5 0 rlineto
  90 rotate
  5 0 rlineto
  90 rotate
  5 0 rlineto
  5 0 rlineto
  -90 rotate
  5 0 rlineto
  -90 rotate
  5 0 rlineto
  90 rotate
  5 0 rlineto
  -90 rotate
  5 0 rlineto
  -90 rotate
  5 0 rlineto
  90 rotate
  5 0 rlineto
  90 rotate
  5 0 rlineto
  5 0 rlineto
  -90 rotate
  5 0 rlineto
  -90 rotate
  5 0 rlineto
  90 rotate
  5 0 rlineto
  -90 rotate
  5 0 rlineto
  -90 rotate
  5 0 rlineto
  90 rotate
  5 0 rlineto
  90 rotate
  5 0 rlineto
  5 0 rlineto
  -90 rotate
  5 0 rlineto
  -90 rotate
  5 0 rlineto
  90 rotate
  5 0 rlineto
  90 rotate
  5 0 rlineto
  -90 rotate
  5 0 rlineto
  90 rotate
  5 0 rlineto
  90 rotate
  5 0 rlineto
  5 0 rlineto
  -90 rotate
  5 0 rlineto
  -90 rotate
  5 0 rlineto
  90 rotate
  5 0 rlineto
  -90 rotate
  5 0 rlineto
  -90 rotate
  5 0 rlineto
  90 rotate
  5 0 rlineto
  90 rotate
  5 0 rlineto
  5 0 rlineto
  -90 rotate
  5 0 rlineto
  -90 rotate
  5 0 rlineto
  90 rotate
  5 0 rlineto
  -90 rotate
  5 0 rlineto
  -90 rotate
  5 0 rlineto
  90 rotate
  5 0 rlineto
  90 rotate
  5 0 rlineto
  5 0 rlineto
  -90 rotate
  5 0 rlineto
  -90 rotate
  5 0 rlineto
  90 rotate
  5 0 rlineto
  90 rotate
  5 0 rlineto
  -90 rotate
  5 0 rlineto
  90 rotate
  5 0 rlineto
  90 rotate
  5 0 rlineto
  5 0 rlineto
  -90 rotate
  5 0 rlineto
  -90 rotate
  5 0 rlineto
  90 rotate
  5 0 rlineto
  90 rotate
  5 0 rlineto
  -90 rotate
  5 0 rlineto
  90 rotate
  5 0 rlineto
  90 rotate
  5 0 rlineto
  5 0 rlineto
  -90 rotate
  5 0 rlineto
  -90 rotate
  5 0 rlineto
  90 rotate
  5 0 rlineto
  5 0 rlineto
  -90 rotate
  5 0 rlineto
  90 rotate
  5 0 rlineto
  90 rotate
  5 0 rlineto
  5 0 rlineto
  -90 rotate
  5 0 rlineto
  -90 rotate
  5 0 rlineto
  90 rotate
  5 0 rlineto
  -90 rotate
  5 0 rlineto
  -90 rotate
  5 0 rlineto
  90 rotate
  5 0 rlineto
  90 rotate
  5 0 rlineto
  5 0 rlineto
  -90 rotate
  5 0 rlineto
  -90 rotate
  5 0 rlineto
  90 rotate
  5 0 rlineto
  -90 rotate
  5 0 rlineto
  -90 rotate
  5 0 rlineto
  90 rotate
  5 0 rlineto
  90 rotate
  5 0 rlineto
  5 0 rlineto
  -90 rotate
  5 0 rlineto
  -90 rotate
  5 0 rlineto
  90 rotate
  5 0 rlineto
  90 rotate
  5 0 rlineto
  -90 rotate
  5 0 rlineto
  90 rotate
  5 0 rlineto
  90 rotate
  5 0 rlineto
  5 0 rlineto
  -90 rotate
  5 0 rlineto
  -90 rotate
  5 0 rlineto
  90 rotate
  5 0 rlineto
  -90 rotate
  5 0 rlineto
  -90 rotate
  5 0 rlineto
  90 rotate
  5 0 rlineto
  90 rotate
  5 0 rlineto
  5 0 rlineto
  -90 rotate
  5 0 rlineto
  -90 rotate
  5 0 rlineto
  90 rotate
  5 0 rlineto
  -90 rotate
  5 0 rlineto
  -90 rotate
  5 0 rlineto
  90 rotate
  5 0 rlineto
  90 rotate
  5 0 rlineto
  5 0 rlineto
  -90 rotate
  5 0 rlineto
  -90 rotate
  5 0 rlineto
  90 rotate
  5 0 rlineto
  90 rotate
  5 0 rlineto
  -90 rotate
  5 0 rlineto
  90 rotate
  5 0 rlineto
  90 rotate
  5 0 rlineto
  5 0 rlineto
  -90 rotate
  5 0 rlineto
  -90 rotate
  5 0 rlineto
  90 rotate
  5 0 rlineto
  90 rotate
  5 0 rlineto
  -90 rotate
  5 0 rlineto
  90 rotate
  5 0 rlineto
  90 rotate
  5 0 rlineto
  5 0 rlineto
  -90 rotate
  5 0 rlineto
  -90 rotate
  5 0 rlineto
  90 rotate
  5 0 rlineto
  5 0 rlineto
  -90 rotate
  5 0 rlineto
  90 rotate
  5 0 rlineto
  90 rotate
  5 0 rlineto
  5 0 rlineto
  -90 rotate
  5 0 rlineto
  -90 rotate
  5 0 rlineto
  90 rotate
  5 0 rlineto
  -90 rotate
  5 0 rlineto
  -90 rotate
  5 0 rlineto
  90 rotate
  5 0 rlineto
  90 rotate
  5 0 rlineto
  5 0 rlineto
  -90 rotate
  5 0 rlineto
  -90 rotate
  5 0 rlineto
  90 rotate
  5 0 rlineto
  -90 rotate
  5 0 rlineto
  -90 rotate
  5 0 rlineto
  90 rotate
  5 0 rlineto
  90 rotate
  5 0 rlineto
  5 0 rlineto
  -90 rotate
  5 0 rlineto
  -90 rotate
  5 0 rlineto
  90 rotate
  5 0 rlineto
  90 rotate
  5 0 rlineto
  -90 rotate
  5 0 rlineto
  90 rotate
  5 0 rlineto
  90 rotate
  5 0 rlineto
  5 0 rlineto
  -90 rotate
  5 0 rlineto
  -90 rotate
  5 0 rlineto
  90 rotate
  5 0 rlineto
  90 rotate
  5 0 rlineto
  -90 rotate
  5 0 rlineto
  90 rotate
  5 0 rlineto
  90 rotate
  5 0 rlineto
  5 0 rlineto
  -90 rotate
  5 0 rlineto
  -90 rotate
  5 0 rlineto
  90 rotate
  5 0 rlineto
  -90 rotate
  5 0 rlineto
  -90 rotate
  5 0 rlineto
  90 rotate
  5 0 rlineto
  90 rotate
  5 0 rlineto
  5 0 rlineto
  -90 rotate
  5 0 rlineto
  -90 rotate
  5 0 rlineto
  90 rotate
  5 0 rlineto
  90 rotate
  5 0 rlineto
  -90 rotate
  5 0 rlineto
  90 rotate
  5 0 rlineto
  90 rotate
  5 0 rlineto
  5 0 rlineto
  -90 rotate
  5 0 rlineto
  -90 rotate
  5 0 rlineto
  90 rotate
  5 0 rlineto
  90 rotate
  5 0 rlineto
  -90 rotate
  5 0 rlineto
  90 rotate
  5 0 rlineto
  90 rotate
  5 0 rlineto
  5 0 rlineto
  -90 rotate
  5 0 rlineto
  -90 rotate
  5 0 rlineto
  90 rotate
  5 0 rlineto
  5 0 rlineto
  -90 rotate
  5 0 rlineto
  90 rotate
  5 0 rlineto
  90 rotate
  5 0 rlineto
  5 0 rlineto
  -90 rotate
  5 0 rlineto
  -90 rotate
  5 0 rlineto
  90 rotate
  5 0 rlineto
  -90 rotate
  5 0 rlineto
  -90 rotate
  5 0 rlineto
  90 rotate
  5 0 rlineto
  90 rotate
  5 0 rlineto
  5 0 rlineto
  -90 rotate
  5 0 rlineto
  -90 rotate
  5 0 rlineto
  90 rotate
  5 0 rlineto
  -90 rotate
  5 0 rlineto
  -90 rotate
  5 0 rlineto
  90 rotate
  5 0 rlineto
  90 rotate
  5 0 rlineto
  5 0 rlineto
  -90 rotate
  5 0 rlineto
  -90 rotate
  5 0 rlineto
  90 rotate
  5 0 rlineto
  90 rotate
  5 0 rlineto
  -90 rotate
  5 0 rlineto
  90 rotate
  5 0 rlineto
  90 rotate
  5 0 rlineto
  5 0 rlineto
  -90 rotate
  5 0 rlineto
  -90 rotate
  5 0 rlineto
  90 rotate
  5 0 rlineto
  90 rotate
  5 0 rlineto
  -90 rotate
  5 0 rlineto
  90 rotate
  5 0 rlineto
  90 rotate
  5 0 rlineto
  5 0 rlineto
  -90 rotate
  5 0 rlineto
  -90 rotate
  5 0 rlineto
  90 rotate
  5 0 rlineto
  -90 rotate
  5 0 rlineto
  -90 rotate
  5 0 rlineto
  90 rotate
  5 0 rlineto
  90 rotate
  5 0 rlineto
  5 0 rlineto
  -90 rotate
  5 0 rlineto
  -90 rotate
  5 0 rlineto
  90 rotate
  5 0 rlineto
  90 rotate
  5 0 rlineto
  -90 rotate
  5 0 rlineto
  90 rotate
  5 0 rlineto
  90 rotate
  5 0 rlineto
  5 0 rlineto
  -90 rotate
  5 0 rlineto
  -90 rotate
  5 0 rlineto
  90 rotate
  5 0 rlineto
  90 rotate
  5 0 rlineto
  -90 rotate
  5 0 rlineto
  90 rotate
  5 0 rlineto
  90 rotate
  5 0 rlineto
  5 0 rlineto
  -90 rotate
  5 0 rlineto
  -90 rotate
  5 0 rlineto
  90 rotate
  5 0 rlineto
  5 0 rlineto
  -90 rotate
  5 0 rlineto
  90 rotate
  5 0 rlineto
  90 rotate
  5 0 rlineto
  5 0 rlineto
  -90 rotate
  5 0 rlineto
  -90 rotate
  5 0 rlineto
  90 rotate
  5 0 rlineto
  -90 rotate
  5 0 rlineto
  -90 rotate
  5 0 rlineto
  90 rotate
  5 0 rlineto
  90 rotate
  5 0 rlineto
  5 0 rlineto
  -90 rotate
  5 0 rlineto
  -90 rotate
  5 0 rlineto
  90 rotate
  5 0 rlineto
  -90 rotate
  5 0 rlineto
  -90 rotate
  5 0 rlineto
  90 rotate
  5 0 rlineto
  90 rotate
  5 0 rlineto
  5 0 rlineto
  -90 rotate
  5 0 rlineto
  -90 rotate
  5 0 rlineto
  90 rotate
  5 0 rlineto
  90 rotate
  5 0 rlineto
  -90 rotate
  5 0 rlineto
  90 rotate
  5 0 rlineto
  90 rotate
  5 0 rlineto
  5 0 rlineto
  -90 rotate
  5 0 rlineto
  -90 rotate
  5 0 rlineto
  90 rotate
  5 0 rlineto
  5 0 rlineto
  -90 rotate
  5 0 rlineto
  90 rotate
  5 0 rlineto
  90 rotate
  5 0 rlineto
  5 0 rlineto
  -90 rotate
  5 0 rlineto
  -90 rotate
  5 0 rlineto
  90 rotate
  5 0 rlineto
  -90 rotate
  5 0 rlineto
  -90 rotate
  5 0 rlineto
  90 rotate
  5 0 rlineto
  90 rotate
  5 0 rlineto
  5 0 rlineto
  -90 rotate
  5 0 rlineto
  -90 rotate
  5 0 rlineto
  90 rotate
  5 0 rlineto
  90 rotate
  5 0 rlineto
  -90 rotate
  5 0 rlineto
  90 rotate
  5 0 rlineto
  90 rotate
  5 0 rlineto
  5 0 rlineto
  -90 rotate
  5 0 rlineto
  -90 rotate
  5 0 rlineto
  90 rotate
  5 0 rlineto
  90 rotate
  5 0 rlineto
  -90 rotate
  5 0 rlineto
  90 rotate
  5 0 rlineto
  90 rotate
  5 0 rlineto
  5 0 rlineto
  -90 rotate
  5 0 rlineto
  -90 rotate
  5 0 rlineto
  90 rotate
  5 0 rlineto
  5 0 rlineto
  -90 rotate
  5 0 rlineto
  90 rotate
  5 0 rlineto
  90 rotate
  5 0 rlineto
  5 0 rlineto
  -90 rotate
  5 0 rlineto
  -90 rotate
  5 0 rlineto
  90 rotate
  5 0 rlineto
  -90 rotate
  5 0 rlineto
  -90 rotate
  5 0 rlineto
  90 rotate
  5 0 rlineto
  90 rotate
  5 0 rlineto
  5 0 rlineto
  -90 rotate
  5 0 rlineto
  -90 rotate
  5 0 rlineto
  90 rotate
  5 0 rlineto
  -90 rotate
  5 0 rlineto
  -90 rotate
  5 0 rlineto
  90 rotate
  5 0 rlineto
  90 rotate
  5 0 rlineto
  5 0 rlineto
  -90 rotate
  5 0 rlineto
  -90 rotate
  5 0 rlineto
  90 rotate
  5 0 rlineto
  90 rotate
  5 0 rlineto
  -90 rotate
  5 0 rlineto
  90 rotate
  5 0 rlineto
  90 rotate
  5 0 rlineto
  5 0 rlineto
  -90 rotate
  5 0 rlineto
  -90 rotate
  5 0 rlineto
  90 rotate
  5 0 rlineto
  -90 rotate
  5 0 rlineto
  -90 rotate
  5 0 rlineto
  90 rotate
  5 0 rlineto
  90 rotate
  5 0 rlineto
  5 0 rlineto
  -90 rotate
  5 0 rlineto
  -90 rotate
  5 0 rlineto
  90 rotate
  5 0 rlineto
  -90 rotate
  5 0 rlineto
  -90 rotate
  5 0 rlineto
  90 rotate
  5 0 rlineto
  90 rotate
  5 0 rlineto
  5 0 rlineto
  -90 rotate
  5 0 rlineto
  -90 rotate
  5 0 rlineto
  90 rotate
  5 0 rlineto
  90 rotate
  5 0 rlineto
  -90 rotate
  5 0 rlineto
  90 rotate
  5 0 rlineto
  90 rotate
  5 0 rlineto
  5 0 rlineto
  -90 rotate
  5 0 rlineto
  -90 rotate
  5 0 rlineto
  90 rotate
  5 0 rlineto
  90 rotate
  5 0 rlineto
  -90 rotate
  5 0 rlineto
  90 rotate
  5 0 rlineto
  90 rotate
  5 0 rlineto
  5 0 rlineto
  -90 rotate
  5 0 rlineto
  -90 rotate
  5 0 rlineto
  90 rotate
  5 0 rlineto
  5 0 rlineto
  -90 rotate
  5 0 rlineto
  90 rotate
  5 0 rlineto
  90 rotate
  5 0 rlineto
  5 0 rlineto
  -90 rotate
  5 0 rlineto
  -90 rotate
  5 0 rlineto
  90 rotate
  5 0 rlineto
  -90 rotate
  5 0 rlineto
  -90 rotate
  5 0 rlineto
  90 rotate
  5 0 rlineto
  90 rotate
  5 0 rlineto
  5 0 rlineto
  -90 rotate
  5 0 rlineto
  -90 rotate
  5 0 rlineto
  90 rotate
  5 0 rlineto
  -90 rotate
  5 0 rlineto
  -90 rotate
  5 0 rlineto
  90 rotate
  5 0 rlineto
  90 rotate
  5 0 rlineto
  5 0 rlineto
  -90 rotate
  5 0 rlineto
  -90 rotate
  5 0 rlineto
  90 rotate
  5 0 rlineto
  90 rotate
  5 0 rlineto
  -90 rotate
  5 0 rlineto
  90 rotate
  5 0 rlineto
  90 rotate
  5 0 rlineto
  5 0 rlineto
  -90 rotate
  5 0 rlineto
  -90 rotate
  5 0 rlineto
  90 rotate
  5 0 rlineto
  -90 rotate
  5 0 rlineto
  -90 rotate
  5 0 rlineto
  90 rotate
  5 0 rlineto
  90 rotate
  5 0 rlineto
  5 0 rlineto
  -90 rotate
  5 0 rlineto
  -90 rotate
  5 0 rlineto
  90 rotate
  5 0 rlineto
  -90 rotate
  5 0 rlineto
  -90 rotate
  5 0 rlineto
  90 rotate
  5 0 rlineto
  90 rotate
  5 0 rlineto
  5 0 rlineto
  -90 rotate
  5 0 rlineto
  -90 rotate
  5 0 rlineto
  90 rotate
  5 0 rlineto
  90 rotate
  5 0 rlineto
  -90 rotate
  5 0 rlineto
  90 rotate
  5 0 rlineto
  90 rotate
  5 0 rlineto
  5 0 rlineto
  -90 rotate
  5 0 rlineto
  -90 rotate
  5 0 rlineto
  90 rotate
  5 0 rlineto
  90 rotate
  5 0 rlineto
  -90 rotate
  5 0 rlineto
  90 rotate
  5 0 rlineto
  90 rotate
  5 0 rlineto
  5 0 rlineto
  -90 rotate
  5 0 rlineto
  -90 rotate
  5 0 rlineto
  90 rotate
  5 0 rlineto
  5 0 rlineto
  -90 rotate
  5 0 rlineto
  90 rotate
  5 0 rlineto
  90 rotate
  5 0 rlineto
  5 0 rlineto
  -90 rotate
  5 0 rlineto
  -90 rotate
  5 0 rlineto
  90 rotate
  5 0 rlineto
  -90 rotate
  5 0 rlineto
  -90 rotate
  5 0 rlineto
  90 rotate
  5 0 rlineto
  90 rotate
  5 0 rlineto
  5 0 rlineto
  -90 rotate
  5 0 rlineto
  -90 rotate
  5 0 rlineto
  90 rotate
  5 0 rlineto
  -90 rotate
  5 0 rlineto
  -90 rotate
  5 0 rlineto
  90 rotate
  5 0 rlineto
  90 rotate
  5 0 rlineto
  5 0 rlineto
  -90 rotate
  5 0 rlineto
  -90 rotate
  5 0 rlineto
  90 rotate
  5 0 rlineto
  90 rotate
  5 0 rlineto
  -90 rotate
  5 0 rlineto
  90 rotate
  5 0 rlineto
  90 rotate
  5 0 rlineto
  5 0 rlineto
  -90 rotate
  5 0 rlineto
  -90 rotate
  5 0 rlineto
  90 rotate
  5 0 rlineto
  90 rotate
  5 0 rlineto
  -90 rotate
  5 0 rlineto
  90 rotate
  5 0 rlineto
  90 rotate
  5 0 rlineto
  5 0 rlineto
  -90 rotate
  5 0 rlineto
  -90 rotate
  5 0 rlineto
  90 rotate
  5 0 rlineto
  -90 rotate
  5 0 rlineto
  -90 rotate
  5 0 rlineto
  90 rotate
  5 0 rlineto
  90 rotate
  5 0 rlineto
  5 0 rlineto
  -90 rotate
  5 0 rlineto
  -90 rotate
  5 0 rlineto
  90 rotate
  5 0 rlineto
  90 rotate
  5 0 rlineto
  -90 rotate
  5 0 rlineto
  90 rotate
  5 0 rlineto
  90 rotate
  5 0 rlineto
  5 0 rlineto
  -90 rotate
  5 0 rlineto
  -90 rotate
  5 0 rlineto
  90 rotate
  5 0 rlineto
  90 rotate
  5 0 rlineto
  -90 rotate
  5 0 rlineto
  90 rotate
  5 0 rlineto
  90 rotate
  5 0 rlineto
  5 0 rlineto
  -90 rotate
  5 0 rlineto
  -90 rotate
  5 0 rlineto
  90 rotate
  5 0 rlineto
  5 0 rlineto
  -90 rotate
  5 0 rlineto
  90 rotate
  5 0 rlineto
  90 rotate
  5 0 rlineto
  5 0 rlineto
  -90 rotate
  5 0 rlineto
  -90 rotate
  5 0 rlineto
  90 rotate
  5 0 rlineto
  -90 rotate
  5 0 rlineto
  -90 rotate
  5 0 rlineto
  90 rotate
  5 0 rlineto
  90 rotate
  5 0 rlineto
  5 0 rlineto
  -90 rotate
  5 0 rlineto
  -90 rotate
  5 0 rlineto
  90 rotate
  5 0 rlineto
  -90 rotate
  5 0 rlineto
  -90 rotate
  5 0 rlineto
  90 rotate
  5 0 rlineto
  90 rotate
  5 0 rlineto
  5 0 rlineto
  -90 rotate
  5 0 rlineto
  -90 rotate
  5 0 rlineto
  90 rotate
  5 0 rlineto
  90 rotate
  5 0 rlineto
  -90 rotate
  5 0 rlineto
  90 rotate
  5 0 rlineto
  90 rotate
  5 0 rlineto
  5 0 rlineto
  -90 rotate
  5 0 rlineto
  -90 rotate
  5 0 rlineto
  90 rotate
  5 0 rlineto
  -90 rotate
  5 0 rlineto
  -90 rotate
  5 0 rlineto
  90 rotate
  5 0 rlineto
  90 rotate
  5 0 rlineto
  5 0 rlineto
  -90 rotate
  5 0 rlineto
  -90 rotate
  5 0 rlineto
  90 rotate
  5 0 rlineto
  -90 rotate
  5 0 rlineto
  -90 rotate
  5 0 rlineto
  90 rotate
  5 0 rlineto
  90 rotate
  5 0 rlineto
  5 0 rlineto
  -90 rotate
  5 0 rlineto
  -90 rotate
  5 0 rlineto
  90 rotate
  5 0 rlineto
  90 rotate
  5 0 rlineto
  -90 rotate
  5 0 rlineto
  90 rotate
  5 0 rlineto
  90 rotate
  5 0 rlineto
  5 0 rlineto
  -90 rotate
  5 0 rlineto
  -90 rotate
  5 0 rlineto
  90 rotate
  5 0 rlineto
  90 rotate
  5 0 rlineto
  -90 rotate
  5 0 rlineto
  90 rotate
  5 0 rlineto
  90 rotate
  5 0 rlineto
  5 0 rlineto
  -90 rotate
  5 0 rlineto
  -90 rotate
  5 0 rlineto
  90 rotate
  5 0 rlineto
  5 0 rlineto
  -90 rotate
  5 0 rlineto
  90 rotate
  5 0 rlineto
  90 rotate
  5 0 rlineto
  5 0 rlineto
  -90 rotate
  5 0 rlineto
  -90 rotate
  5 0 rlineto
  90 rotate
  5 0 rlineto
  -90 rotate
  5 0 rlineto
  -90 rotate
  5 0 rlineto
  90 rotate
  5 0 rlineto
  90 rotate
  5 0 rlineto
  5 0 rlineto
  -90 rotate
  5 0 rlineto
  -90 rotate
  5 0 rlineto
  90 rotate
  5 0 rlineto
  -90 rotate
  5 0 rlineto
  -90 rotate
  5 0 rlineto
  90 rotate
  5 0 rlineto
  90 rotate
  5 0 rlineto
  5 0 rlineto
  -90 rotate
  5 0 rlineto
  -90 rotate
  5 0 rlineto
  90 rotate
  5 0 rlineto
  90 rotate
  5 0 rlineto
  -90 rotate
  5 0 rlineto
  90 rotate
  5 0 rlineto
  90 rotate
  5 0 rlineto
  5 0 rlineto
  -90 rotate
  5 0 rlineto
  -90 rotate
  5 0 rlineto
  90 rotate
  5 0 rlineto
  -90 rotate
  5 0 rlineto
  -90 rotate
  5 0 rlineto
  90 rotate
  5 0 rlineto
  90 rotate
  5 0 rlineto
  5 0 rlineto
  -90 rotate
  5 0 rlineto
  -90 rotate
  5 0 rlineto
  90 rotate
  5 0 rlineto
  -90 rotate
  5 0 rlineto
  -90 rotate
  5 0 rlineto
  90 rotate
  5 0 rlineto
  90 rotate
  5 0 rlineto
  5 0 rlineto
  -90 rotate
  5 0 rlineto
  -90 rotate
  5 0 rlineto
  90 rotate
  5 0 rlineto
  90 rotate
  5 0 rlineto
  -90 rotate
  5 0 rlineto
  90 rotate
  5 0 rlineto
  90 rotate
  5 0 rlineto
  5 0 rlineto
  -90 rotate
  5 0 rlineto
  -90 rotate
  5 0 rlineto
  90 rotate
  5 0 rlineto
  90 rotate
  5 0 rlineto
  -90 rotate
  5 0 rlineto
  90 rotate
  5 0 rlineto
  90 rotate
  5 0 rlineto
  5 0 rlineto
  -90 rotate
  5 0 rlineto
  -90 rotate
  5 0 rlineto
  90 rotate
  5 0 rlineto
  5 0 rlineto
  -90 rotate
  5 0 rlineto
  90 rotate
  5 0 rlineto
  90 rotate
  5 0 rlineto
  5 0 rlineto
  -90 rotate
  5 0 rlineto
  -90 rotate
  5 0 rlineto
  90 rotate
  5 0 rlineto
  -90 rotate
  5 0 rlineto
  -90 rotate
  5 0 rlineto
  90 rotate
  5 0 rlineto
  90 rotate
  5 0 rlineto
  5 0 rlineto
  -90 rotate
  5 0 rlineto
  -90 rotate
  5 0 rlineto
  90 rotate
  5 0 rlineto
  -90 rotate
  5 0 rlineto
  -90 rotate
  5 0 rlineto
  90 rotate
  5 0 rlineto
  90 rotate
  5 0 rlineto
  5 0 rlineto
  -90 rotate
  5 0 rlineto
  -90 rotate
  5 0 rlineto
  90 rotate
  5 0 rlineto
  90 rotate
  5 0 rlineto
  -90 rotate
  5 0 rlineto
  90 rotate
  5 0 rlineto
  90 rotate
  5 0 rlineto
  5 0 rlineto
  -90 rotate
  5 0 rlineto
  -90 rotate
  5 0 rlineto
  90 rotate
  5 0 rlineto
  90 rotate
  5 0 rlineto
  -90 rotate
  5 0 rlineto
  90 rotate
  5 0 rlineto
  90 rotate
  5 0 rlineto
  5 0 rlineto
  -90 rotate
  5 0 rlineto
  -90 rotate
  5 0 rlineto
  90 rotate
  5 0 rlineto
  -90 rotate
  5 0 rlineto
  -90 rotate
  5 0 rlineto
  90 rotate
  5 0 rlineto
  90 rotate
  5 0 rlineto
  5 0 rlineto
  -90 rotate
  5 0 rlineto
  -90 rotate
  5 0 rlineto
  90 rotate
  5 0 rlineto
  90 rotate
  5 0 rlineto
  -90 rotate
  5 0 rlineto
  90 rotate
  5 0 rlineto
  90 rotate
  5 0 rlineto
  5 0 rlineto
  -90 rotate
  5 0 rlineto
  -90 rotate
  5 0 rlineto
  90 rotate
  5 0 rlineto
  90 rotate
  5 0 rlineto
  -90 rotate
  5 0 rlineto
  90 rotate
  5 0 rlineto
  90 rotate
  5 0 rlineto
  5 0 rlineto
  -90 rotate
  5 0 rlineto
  -90 rotate
  5 0 rlineto
  90 rotate
  5 0 rlineto
  5 0 rlineto
  -90 rotate
  5 0 rlineto
  90 rotate
  5 0 rlineto
  90 rotate
  5 0 rlineto
  5 0 rlineto
  -90 rotate
  5 0 rlineto
  -90 rotate
  5 0 rlineto
  90 rotate
  5 0 rlineto
  -90 rotate
  5 0 rlineto
  -90 rotate
  5 0 rlineto
  90 rotate
  5 0 rlineto
  90 rotate
  5 0 rlineto
  5 0 rlineto
  -90 rotate
  5 0 rlineto
  -90 rotate
  5 0 rlineto
  90 rotate
  5 0 rlineto
  -90 rotate
  5 0 rlineto
  -90 rotate
  5 0 rlineto
  90 rotate
  5 0 rlineto
  90 rotate
  5 0 rlineto
  5 0 rlineto
  -90 rotate
  5 0 rlineto
  -90 rotate
  5 0 rlineto
  90 rotate
  5 0 rlineto
  90 rotate
  5 0 rlineto
  -90 rotate
  5 0 rlineto
  90 rotate
  5 0 rlineto
  90 rotate
  5 0 rlineto
  5 0 rlineto
  -90 rotate
  5 0 rlineto
  -90 rotate
  5 0 rlineto
  90 rotate
  5 0 rlineto
  90 rotate
  5 0 rlineto
  -90 rotate
  5 0 rlineto
  90 rotate
  5 0 rlineto
  90 rotate
  5 0 rlineto
  5 0 rlineto
  -90 rotate
  5 0 rlineto
  -90 rotate
  5 0 rlineto
  90 rotate
  5 0 rlineto
  -90 rotate
  5 0 rlineto
  -90 rotate
  5 0 rlineto
  90 rotate
  5 0 rlineto
  90 rotate
  5 0 rlineto
  5 0 rlineto
  -90 rotate
  5 0 rlineto
  -90 rotate
  5 0 rlineto
  90 rotate
  5 0 rlineto
  90 rotate
  5 0 rlineto
  -90 rotate
  5 0 rlineto
  90 rotate
  5 0 rlineto
  90 rotate
  5 0 rlineto
  5 0 rlineto
  -90 rotate
  5 0 rlineto
  -90 rotate
  5 0 rlineto
  90 rotate
  5 0 rlineto
  90 rotate
  5 0 rlineto
  -90 rotate
  5 0 rlineto
  90 rotate
  5 0 rlineto
  90 rotate
  5 0 rlineto
  5 0 rlineto
  -90 rotate
  5 0 rlineto
  -90 rotate
  5 0 rlineto
  90 rotate
  5 0 rlineto
  5 0 rlineto
  -90 rotate
  5 0 rlineto
  90 rotate
  5 0 rlineto
  90 rotate
  5 0 rlineto
  5 0 rlineto
  -90 rotate
  5 0 rlineto
  -90 rotate
  5 0 rlineto
  90 rotate
  5 0 rlineto
  -90 rotate
  5 0 rlineto
  -90 rotate
  5 0 rlineto
  90 rotate
  5 0 rlineto
  90 rotate
  5 0 rlineto
  5 0 rlineto
  -90 rotate
  5 0 rlineto
  -90 rotate
  5 0 rlineto
  90 rotate
  5 0 rlineto
  -90 rotate
  5 0 rlineto
  -90 rotate
  5 0 rlineto
  90 rotate
  5 0 rlineto
  90 rotate
  5 0 rlineto
  5 0 rlineto
  -90 rotate
  5 0 rlineto
  -90 rotate
  5 0 rlineto
  90 rotate
  5 0 rlineto
  90 rotate
  5 0 rlineto
  -90 rotate
  5 0 rlineto
  90 rotate
  5 0 rlineto
  90 rotate
  5 0 rlineto
  5 0 rlineto
  -90 rotate
  5 0 rlineto
  -90 rotate
  5 0 rlineto
  90 rotate
  5 0 rlineto
  5 0 rlineto
  -90 rotate
  5 0 rlineto
  90 rotate
  5 0 rlineto
  90 rotate
  5 0 rlineto
  5 0 rlineto
  -90 rotate
  5 0 rlineto
  -90 rotate
  5 0 rlineto
  90 rotate
  5 0 rlineto
  -90 rotate
  5 0 rlineto
  -90 rotate
  5 0 rlineto
  90 rotate
  5 0 rlineto
  90 rotate
  5 0 rlineto
  5 0 rlineto
  -90 rotate
  5 0 rlineto
  -90 rotate
  5 0 rlineto
  90 rotate
  5 0 rlineto
  90 rotate
  5 0 rlineto
  -90 rotate
  5 0 rlineto
  90 rotate
  5 0 rlineto
  90 rotate
  5 0 rlineto
  5 0 rlineto
  -90 rotate
  5 0 rlineto
  -90 rotate
  5 0 rlineto
  90 rotate
  5 0 rlineto
  90 rotate
  5 0 rlineto
  -90 rotate
  5 0 rlineto
  90 rotate
  5 0 rlineto
  90 rotate
  5 0 rlineto
  5 0 rlineto
  -90 rotate
  5 0 rlineto
  -90 rotate
  5 0 rlineto
  90 rotate
  5 0 rlineto
  5 0 rlineto
  -90 rotate
  5 0 rlineto
  90 rotate
  5 0 rlineto
  90 rotate
  5 0 rlineto
  5 0 rlineto
  -90 rotate
  5 0 rlineto
  -90 rotate
  5 0 rlineto
  90 rotate
  5 0 rlineto
  -90 rotate
  5 0 rlineto
  -90 rotate
  5 0 rlineto
  90 rotate
  5 0 rlineto
  90 rotate
  5 0 rlineto
  5 0 rlineto
  -90 rotate
  5 0 rlineto
  -90 rotate
  5 0 rlineto
  90 rotate
  5 0 rlineto
  -90 rotate
  5 0 rlineto
  -90 rotate
  5 0 rlineto
  90 rotate
  5 0 rlineto
  90 rotate
  5 0 rlineto
  5 0 rlineto
  -90 rotate
  5 0 rlineto
  -90 rotate
  5 0 rlineto
  90 rotate
  5 0 rlineto
  90 rotate
  5 0 rlineto
  -90 rotate
  5 0 rlineto
  90 rotate
  5 0 rlineto
  90 rotate
  5 0 rlineto
  5 0 rlineto
  -90 rotate
  5 0 rlineto
  -90 rotate
  5 0 rlineto
  90 rotate
  5 0 rlineto
  -90 rotate
  5 0 rlineto
  -90 rotate
  5 0 rlineto
  90 rotate
  5 0 rlineto
  90 rotate
  5 0 rlineto
  5 0 rlineto
  -90 rotate
  5 0 rlineto
  -90 rotate
  5 0 rlineto
  90 rotate
  5 0 rlineto
  -90 rotate
  5 0 rlineto
  -90 rotate
  5 0 rlineto
  90 rotate
  5 0 rlineto
  90 rotate
  5 0 rlineto
  5 0 rlineto
  -90 rotate
  5 0 rlineto
  -90 rotate
  5 0 rlineto
  90 rotate
  5 0 rlineto
  90 rotate
  5 0 rlineto
  -90 rotate
  5 0 rlineto
  90 rotate
  5 0 rlineto
  90 rotate
  5 0 rlineto
  5 0 rlineto
  -90 rotate
  5 0 rlineto
  -90 rotate
  5 0 rlineto
  90 rotate
  5 0 rlineto
  90 rotate
  5 0 rlineto
  -90 rotate
  5 0 rlineto
  90 rotate
  5 0 rlineto
  90 rotate
  5 0 rlineto
  5 0 rlineto
  -90 rotate
  5 0 rlineto
  -90 rotate
  5 0 rlineto
  90 rotate
  5 0 rlineto
  5 0 rlineto
  -90 rotate
  5 0 rlineto
  90 rotate
  5 0 rlineto
  90 rotate
  5 0 rlineto
  5 0 rlineto
  -90 rotate
  5 0 rlineto
  -90 rotate
  5 0 rlineto
  90 rotate
  5 0 rlineto
  -90 rotate
  5 0 rlineto
  -90 rotate
  5 0 rlineto
  90 rotate
  5 0 rlineto
  90 rotate
  5 0 rlineto
  5 0 rlineto
  -90 rotate
  5 0 rlineto
  -90 rotate
  5 0 rlineto
  90 rotate
  5 0 rlineto
  -90 rotate
  5 0 rlineto
  -90 rotate
  5 0 rlineto
  90 rotate
  5 0 rlineto
  90 rotate
  5 0 rlineto
  5 0 rlineto
  -90 rotate
  5 0 rlineto
  -90 rotate
  5 0 rlineto
  90 rotate
  5 0 rlineto
  90 rotate
  5 0 rlineto
  -90 rotate
  5 0 rlineto
  90 rotate
  5 0 rlineto
  90 rotate
  5 0 rlineto
  5 0 rlineto
  -90 rotate
  5 0 rlineto
  -90 rotate
  5 0 rlineto
  90 rotate
  5 0 rlineto
  -90 rotate
  5 0 rlineto
  -90 rotate
  5 0 rlineto
  90 rotate
  5 0 rlineto
  90 rotate
  5 0 rlineto
  5 0 rlineto
  -90 rotate
  5 0 rlineto
  -90 rotate
  5 0 rlineto
  90 rotate
  5 0 rlineto
  -90 rotate
  5 0 rlineto
  -90 rotate
  5 0 rlineto
  90 rotate
  5 0 rlineto
  90 rotate
  5 0 rlineto
  5 0 rlineto
  -90 rotate
  5 0 rlineto
  -90 rotate
  5 0 rlineto
  90 rotate
  5 0 rlineto
  90 rotate
  5 0 rlineto
  -90 rotate
  5 0 rlineto
  90 rotate
  5 0 rlineto
  90 rotate
  5 0 rlineto
  5 0 rlineto
  -90 rotate
  5 0 rlineto
  -90 rotate
  5 0 rlineto
  90 rotate
  5 0 rlineto
  90 rotate
  5 0 rlineto
  -90 rotate
  5 0 rlineto
  90 rotate
  5 0 rlineto
  90 rotate
  5 0 rlineto
  5 0 rlineto
  -90 rotate
  5 0 rlineto
  -90 rotate
  5 0 rlineto
  90 rotate
  5 0 rlineto
  5 0 rlineto
  -90 rotate
  5 0 rlineto
  90 rotate
  5 0 rlineto
  90 rotate
  5 0 rlineto
  5 0 rlineto
  -90 rotate
  5 0 rlineto
  -90 rotate
  5 0 rlineto
  90 rotate
  5 0 rlineto
  -90 rotate
  5 0 rlineto
  -90 rotate
  5 0 rlineto
  90 rotate
  5 0 rlineto
  90 rotate
  5 0 rlineto
  5 0 rlineto
  -90 rotate
  5 0 rlineto
  -90 rotate
  5 0 rlineto
  90 rotate
  5 0 rlineto
  -90 rotate
  5 0 rlineto
  -90 rotate
  5 0 rlineto
  90 rotate
  5 0 rlineto
  90 rotate
  5 0 rlineto
  5 0 rlineto
  -90 rotate
  5 0 rlineto
  -90 rotate
  5 0 rlineto
  90 rotate
  5 0 rlineto
  90 rotate
  5 0 rlineto
  -90 rotate
  5 0 rlineto
  90 rotate
  5 0 rlineto
  90 rotate
  5 0 rlineto
  5 0 rlineto
  -90 rotate
  5 0 rlineto
  -90 rotate
  5 0 rlineto
  90 rotate
  5 0 rlineto
  90 rotate
  5 0 rlineto
  -90 rotate
  5 0 rlineto
  90 rotate
  5 0 rlineto
  90 rotate
  5 0 rlineto
  5 0 rlineto
  -90 rotate
  5 0 rlineto
  -90 rotate
  5 0 rlineto
  90 rotate
  5 0 rlineto
  -90 rotate
  5 0 rlineto
  -90 rotate
  5 0 rlineto
  90 rotate
  5 0 rlineto
  90 rotate
  5 0 rlineto
  5 0 rlineto
  -90 rotate
  5 0 rlineto
  -90 rotate
  5 0 rlineto
  90 rotate
  5 0 rlineto
  90 rotate
  5 0 rlineto
  -90 rotate
  5 0 rlineto
  90 rotate
  5 0 rlineto
  90 rotate
  5 0 rlineto
  5 0 rlineto
  -90 rotate
  5 0 rlineto
  -90 rotate
  5 0 rlineto
  90 rotate
  5 0 rlineto
  90 rotate
  5 0 rlineto
  -90 rotate
  5 0 rlineto
  90 rotate
  5 0 rlineto
  90 rotate
  5 0 rlineto
  5 0 rlineto
  -90 rotate
  5 0 rlineto
  -90 rotate
  5 0 rlineto
  90 rotate
  5 0 rlineto
  5 0 rlineto
  -90 rotate
  5 0 rlineto
  90 rotate
  5 0 rlineto
  90 rotate
  5 0 rlineto
  5 0 rlineto
  -90 rotate
  5 0 rlineto
  -90 rotate
  5 0 rlineto
  90 rotate
  5 0 rlineto
  -90 rotate
  5 0 rlineto
  -90 rotate
  5 0 rlineto
  90 rotate
  5 0 rlineto
  90 rotate
  5 0 rlineto
  5 0 rlineto
  -90 rotate
  5 0 rlineto
  -90 rotate
  5 0 rlineto
  90 rotate
  5 0 rlineto
  -90 rotate
  5 0 rlineto
  -90 rotate
  5 0 rlineto
  90 rotate
  5 0 rlineto
  90 rotate
  5 0 rlineto
  5 0 rlineto
  -90 rotate
  5 0 rlineto
  -90 rotate
  5 0 rlineto
  90 rotate
  5 0 rlineto
  90 rotate
  5 0 rlineto
  -90 rotate
  5 0 rlineto
  90 rotate
  5 0 rlineto
  90 rotate
  5 0 rlineto
  5 0 rlineto
  -90 rotate
  5 0 rlineto
  -90 rotate
  5 0 rlineto
  90 rotate
  5 0 rlineto
  closepath
  gsave
  0.8 setgray
  fill
  grestore
  stroke
  showpage
%%Trailer
%%EOF
